﻿index_name (.pdf),Price,Property Name,Address,"Nearest Station
最寄駅","Route
路線","Distance from the station
駅からの距離区","Floor plan
間取り","Size of the Property
専有面積","Building Age
建築年数",Establish year,Establish year　as shown,"Time of contract：current status
成約時期：現状","Time of contract: delivery time
成約時期：引渡","Use District
用途地域"1_buy_sell,"2,580万円",ロイヤル西宮中央公園,兵庫県西宮市広山町,西宮北口,阪急神戸線,15分,2LDK,59.44m²,16年,5/1/03,5/1/03,空家,即時,２種中高2_buy_sell,"5,580万円",ローレルスクエア甲子園弐番館,兵庫県西宮市甲子園町28-8,甲子園,阪神本線,９分,2LDK+N+WIC,85.37m²,18年,6/1/01,平成13年6月,居住中,相談,3_buy_sell,"4,580万円",ジオ西宮北口ガーデンズ　NW棟,西宮市神祇官町６－２７,"西宮北口
西宮","阪急神戸線
JR東海道本線","9分
9分",2SLDK,70.79m²,5年,2/1/14,2014年（平成26年）2月,居住中,2019年（平成31年）3月下旬以降（予定）,準工業地域4_buy_sell,"3,180万円",ファインビュー西宮,兵庫県西宮市津門大塚町,"西宮
阪神国道
今津
西宮","東海道本線
阪急今津線
阪急今津線
阪急本線","6分
4分
12分
14分",2LDK,55.30m²,20年,2/1/99,平成11年（1999年）2月,居住中,相談,近隣商業地域5_buy_sell,"2,299万円",ライオンズマンション西宮高座A棟,西宮市高座町14-45,"西宮北口
大社町","阪急神戸線
バス","13分
3分",2LDK,68.02m²,30年,2/1/89,平成1年2月,空家,相談,-6_buy_sell,"1,990万円",アトラス西宮,西宮市東町2丁目２－２０,西宮,阪神本線,14分,3LDK,71.72m²,23年,1/1/96,平成8年1月,居住中,相談,準工業地域7_buy_sell,"1,480万円（税込）",ハイツシマサキ　503号室,西宮市田代町4番4,西宮北口,阪急神戸線,9分,2DK,46.98m²,46年,6/1/73,昭和48年6月,空室,相談,第１種住居地域8_buy_sell,"1,380万円",ユニハイム西宮　3階,西宮市石在町19-44,"西宮
今津
西宮","阪神本線
阪急今津線
JR神戸線","12分
17分
18分",2SLDK,76.49m²,37年,3/1/82,昭和57年3月,空家,相談,準工業地域9_buy_sell,"3,850万円",ラフィネス西宮北口ノースコート,西宮市深津町1番10号,"西宮北口
西宮
阪神国道","阪急神戸線
JR東海道本線
阪神今津線","8分
10分
5分",2SLDK,66.27m²,9年,2/1/10,2010年（平成22年）2月,居住中,相談,工業地域10_buy_sell,"1,980万円",パレ苦楽園,西宮市老松町15-7,苦楽園口,阪急甲陽線,18分,3LDK,71.8m²,25年,12/1/94,平成6年12月,居住中,相談,第１種中高層住居専用地域11_buy_sell,"4,180万円",ジェイグラン甲子園口松並町,西宮市松並町4-28,甲子園口,JR神戸線,7分,3LDK,75.15m²,12年,2007年,平成19年,空,相談,第１種中高層住居専用地域12_buy_sell,"4,790万円",ジオ西宮北口ガーデンズ　NW棟,西宮市神祇官町６－２７,"西宮北口
西宮","阪急神戸線
JR東海道本線","9分
8分",3LDK,76.70m²,5年,2/1/14,2014年（平成26年）2月,空家,即時,準工業地域13_buy_sell,"1,480万円",藤和ライブタウン仁川2,西宮市段上町6丁目24-31,仁川,阪急今津線,15分,4LDK,78.34m²,33年,4/1/86,昭和61年4月,空家,-,第１種中高層住居専用地域14_buy_sell,"1,930万円",西宮マリナパークシティ杜のまち　２番館,西宮市西宮浜4丁目,西宮,阪神本線,2分,3LDK,79.03m²,21年,6/1/98,6/1/98,空家,相談,第1種中高層15_buy_sell,"1,500万円",夙川グリーンハイツ,西宮市大谷町11-25,夙川,阪急神戸線,11分,4LDK,73.25m²,43年,1/1/76,昭和51年1月,居住中,平成30年12月末,第１種中高層住居専用地域16_buy_sell,"1,590万円",夙川台サンハイツ　D棟,西宮市柏堂町,夙川,阪急神戸線,3分,3LDK,85.40m²,45年,7/1/74,7/1/74,居住中,相談,第１種低層17_buy_sell,"2,750万円（税込）",エル夙川　808号室,西宮市神楽町3-20,"さくら夙川
西宮
夙川","JR神戸線
阪神本線
阪急神戸線","３分
８分
１１分",3LDK,71.52m²,40年,2/1/79,昭和54年2月,空家,相談,近隣商業地域・第一種住居地域18_buy_sell,"4,180万円",ブランズ苦楽園,西宮市樋之池町２８－４３,苦楽園口,阪急甲陽線,16分,3LDK,94.44m²,11年,9/1/08,平成20年9月,空家,相談,第一種低層住居専用地域19_buy_sell,"2,790万円（税込）",ピアン西宮　502号室,西宮市高松町11-2,西宮北口,阪急神戸線,2分,2LDK,59.39m²,46年,8/1/73,昭和48年8月,空室,相談,-20_buy_sell,2540万円,ワコーレヴィル甲子園口　204号室,西宮市甲子園口2丁目5番3号,甲子園口,JR神戸線,2分,2LDK,55.51m²,19年,10/1/00,平成12年10月,-,相談,-21_buy_sell,"2,480万円",藤和ライブタウン甲陽園山王町　B棟,西宮市甲陽園山王町,甲陽園,阪急甲陽線,12分,3LDK,106.42m²,36年,3/1/83,3/1/83,空家,即時,第１種低層22_buy_sell,"1,680万円",武庫川ニュースカイハイツ,西宮市東鳴尾町2丁目2番11,東鳴尾,阪神武庫川線,3分,2LDK,75.60m²,40年,12/1/79,昭和54年10月,居住中,相談,第一種住居地域23_buy_sell,"3,590万円",東急ドエルアルス甲東園,兵庫県西宮市上甲東園1丁目2番７,甲東園,阪急今津線,１１分,3LDK,70.20m²,19年,9/1/00,9/1/00,空家,相談,第1種低層住居専用地域24_buy_sell,"3,780万円",樋之池アーバンライフ,西宮市樋之池町２７－５３,苦楽園口,阪急甲陽線,14分,4LDK,87.66m²,22年,12/1/97,H9年12月,空家,即時,1種中高層25_buy_sell,"5,930万円",プラネスーぺリア西宮北口,西宮市芦原町10-5,"西宮北口
西宮","阪急神戸線
JR神戸線","7分
11分",4LDK,90.80m²,7年,10/1/12,2012年（平成24年）10月,居住中,2019年3月下旬以降,第二種住居地域26_buy_sell,"2,300万円",コート甲子園　３番館　１３階部分,西宮市今津巽町７番３,久寿川,阪神本線,13分,4LDK,90.80m²,21年,1/1/98,平成10年1月,居住中,ご相談（約2～3ヶ月要す）,第1種住居地域27_buy_sell,"2,899万円（税込）",シキボウスターハイツ西宮北口　４０６号室,西宮市高木東町31-3,西宮北口,阪急神戸線,11分,3LDK,68.36m²,43年,1/1/76,昭和51年1月,空室,相談,-28_buy_sell,"1,780万円（税込）",新甲子園マンション　３階,兵庫県西宮市甲子園七番町８－３,甲子園,阪神本線,4分,2LDK,58.23m²,50年,1/1/69,1/1/69,空家,相談,第1種住居地域/近隣商業地域29_buy_sell,"3,580万円",サクレセーヌ夙川　４階４０３号室,西宮市上葭原町２－８,香櫨園,阪神本線,9分,1LDK+2N,77.60m²,13年,12/1/06,平成18年12月,空家,相談,第一種中高層住居専用地域30_buy_sell,"2,280万円",ロイヤルグラン夙川,西宮市神垣町６-１５-３０５,苦楽園口,阪急甲陽線,15分,3LDK,65.47m²,16年,6/1/03,平成15年6月,空室,即時,第１種中高層住居専用地域31_buy_sell,"2,750万円",ダイアパレス広田山公園,西宮市柳本町6番34号,西宮北口-市民運動場,阪急神戸線-バス,14分+3分,3LDK,72.41m²,21年,2/1/98,平成10年2月,所有者居住中,即可（残金支払後）,第一種住居地域32_buy_sell,"1,480万円",日商岩井香櫨園マンション1号棟,西宮市泉町1-1,香櫨園,阪神本線,15分,3DK,66m²,41年,2/1/78,昭和53年2月,居住中,相談,準工業地域33_buy_sell,"3,580万円",D　クラディア夙川,兵庫県西宮市産所町13-3,"西宮
さくら夙川
夙川","阪神
JR
阪急","5分
5分
13分",2LDK,66.27m²,14年,11/1/05,平成17年11月,居住中,相談,第1種住居・近隣商業34_buy_sell,"2,980万円",イトーピア苦楽園樋之池町,西宮市樋之池町27-57,苦楽園口,阪急甲陽線,13分,3LDK,74.21m²,21年,11/1/98,平成10年11月,居住中,平成30年12月末,第1種中高層35_buy_sell,"5,480万円",エスリード西宮甲陽園3番館Hills,西宮市甲陽園東山町9-41,甲陽園,阪急甲陽線,14分,3LDK,125.05m²,6年,9/1/13,平成25年9月,居住中,相談,第1種低層住居専用地域、第1種中高層住居専用地域36_buy_sell,"4,500万円",リブコート苦楽園モニモスの丘,西宮市角石町1-56,苦楽園口,阪急甲陽線,18分,3LDK,96.18m²,16年,11/1/03,平成15年11月,空家,相談,第1種低層住居専用地域37_buy_sell,"2,390万円（税込）",ハイム甲子園,西宮市甲子園七番町　14-23,甲子園,阪神本線,5分,3LDK,70.85m²,45年,3/1/74,昭和49年3月,空室,相談,-38_buy_sell,"2,480万円（消費税込）",香枦園弐番館　2階203号室,西宮市前浜町3-25,香櫨園,阪神本線,14分,3LDK,97.75m²,36年,8/1/83,昭和58年8月,空室,相談,準工業地域39_buy_sell,"4,850万円",ファインシティ甲子園ノースレジデンス,兵庫県西宮市枝川町10-1,甲子園,阪神本線,1760m,3LDK,89.49m²,2年,2/1/17,平成29年2月,空家,相談,第一種中高層住居専用地域40_buy_sell,"1,580万円（税込）",ハイツシマサキ　503号室,西宮市田代町4番4,西宮北口,阪急神戸線,9分,2DK,46.98m²,46年,6/1/73,6/1/73,空室,即時,第一種住居地域41_buy_sell,"2,599万円（税込）",ライオンズマンション西宮高座B棟,西宮市高座町14-46,"西宮北口
大社町","阪急神戸線
バス","13分
3分",３LDK,74.74m²,30年,2/1/89,平成1年2月,空室,相談,-42_buy_sell,"3,380万円",パレ西宮北口,西宮市高畑町１－２５,西宮北口,阪急神戸線,9分,３LDK,74.77m²,20年,4/1/99,1999年（平成11年）4月,居住中,2019年3月下旬以降,準工業地域43_buy_sell,"6,300万円",ヴィルビュ夙川,西宮市大谷町7-36,夙川,阪急神戸線,13分,３LDK,158.35m²,28年,12/1/91,H3年12月,空室,相談,１種中高層44_buy_sell,"3,680万円",ロイヤル甲子園,兵庫県西宮市上鳴尾町17-33,"甲子園
鳴尾","阪神本線
阪神本線","４分
８分",３LDK,71.78m²,18年,11/1/01,平成１３年１１月,居住中,相談,第１種中高層住居専用地域45_buy_sell,"1,830万円",西宮東町アーバンコンフォート,西宮市東町1丁目,西宮,阪神本線,１９分,3LDK,63.94m²,23年,11/1/96,平成８年１１月,居住中,相談,準工業地域46_buy_sell,"2,180万円",甲子園センチュリーマンション,兵庫県西宮市上鳴尾町1-30,甲子園,阪神本線,６分,３LDK ,61.05m²,48年,5/1/71,昭和４６年５月,空家,相談,第一種中高層住居専用地域47_buy_sell,"1,280万円",サンライズハイツ一ケ谷,兵庫県西宮市一ケ谷町7-57,甲陽園,阪急甲陽線,1760m,3LDK,70.45m²,33年,3/1/86,昭和61年3月,空家,相談,第一種中高層住居専用地域48_buy_sell,"1,999万円（税込）","西宮マリナパークシティ
杜のまち1番館　1006号室",西宮市西宮浜4-10-1,"西宮
マリナパーク","阪神本線
バス","１３分
１分",３LDK ,74.68m²,21年,6/1/98,平成10年6月,空室,相談,-49_buy_sell,"2,260万円","西宮マリナパークシティ
花のまちマリナヴィラ",西宮市西宮浜4丁目14-3,西宮,阪神本線,1分,３LDK,70.49m²,20年,5/1/99,平成11年5月,居住中,相談,近隣商業地域50_buy_sell,"1,820万円",メガロコープ西宮（II）2号棟,西宮市久保町11番27,西宮,阪神本線,14分,２LDK ,69.30m²,45年,10/1/74,昭和49年10月,空家,-,準工業地域51_buy_sell,"2,580万円（税込）",ユニライフ浜甲子園,西宮市浜甲子園3丁目５－５,甲子園,阪神本線,18分,３LDK ,77.72m²,20年,3/1/99,H11年3月,空家,相談,第一種中高層住居専用地域52_buy_sell,"5,250万円",ブランズ苦楽園,西宮市樋之池町２８－４３,苦楽園口,阪急甲陽線,15分,３LDK+N,104.07m²,11年,10/1/08,平成20年10月,居住中,期日指定　平成31年3月,第1種低層住居専用地域53_buy_sell,"5,150万円",アーバンビュー夙川霞町,西宮市霞町,夙川,阪急神戸線,5分,３LDK ,83.97m²,21年,12/1/98,12/1/98,空家,相談,第1種中高層/第１種低層54_buy_sell,"3,430万円","ラ・ヴィーダ西宮
15階1503号室",西宮市池田町12番33,西宮,東海道本線,２分,２LDK ,69.29m²,26年,7/1/93,平成5年7月,空室,相談,近隣商業地域55_buy_sell,"1,380万円（税込）","北広田アーバンライフ
3階",兵庫県西宮市六軒町2-17,甲陽園,阪急甲陽線,13分,1LDK+S,55.98m²,43年,9/1/76,9/1/76,空家,相談,第1種中高層住居専用地域56_buy_sell,"1,480万円（税込）","北広田アーバンライフ
4階",兵庫県西宮市六軒町2-17,甲陽園,阪急甲陽線,13分,2LDK+S,61.02m²,43年,9/1/76,9/1/76,空家,相談,第1種中高層住居専用地域57_buy_sell,"1,650万円","西宮マリナパークシティ・海のまち
3階308号室",兵庫県西宮市西宮浜4丁目11番7-308号,"西宮
マリナパーク西","阪神本線
バス","１３分
１分",3LDK,71.57m²,21年,2/1/98,平成10年2月,空家,相談,第一種中高層住居専用地域58_buy_sell,"3,980万円（税込）",ファインビュー西宮　2005号室,西宮市津門大塚町2-30,"西宮
阪神国道","JR神戸線
阪急今津線","5分
5分",３LDK ,73.37m²,20年,3/1/99,平成11年3月,空家,相談,第二種住居地域59_buy_sell,"3,450万円","サンクレイドル西宮北口
3階",西宮市青木町9-9,"西宮
西宮北口","JR東海道本線
阪急神戸線","10分
14分",２LDK+N,65.21m²,3年,10/1/16,平成28年10月,所有者居住中,相談,第一種住居地域60_buy_sell,"4,080万円",パレ苦楽園口　503号室,兵庫県西宮市獅子ヶ口町2番12号,苦楽園口,阪急甲陽線,9分,３LDK ,77.12m²,22年,7/1/97,平成9年7月,空室,即時可能,第一種中高層住居専用地域61_buy_sell,"5,180万円",-,西宮市甲陽園西山町14-37,甲陽園,阪急甲陽線,15分,5LDK+3S,248.24m²,31年,3/1/88,1988年（昭和63年）3月,空家,相談,第一種低層住居専用地域62_buy_sell,"2,450万円",ロイヤルヴィラ苦楽園　2号棟　2階,兵庫県西宮市苦楽園五番町2-35,"芦屋
苦楽園五番町","東海道本線
バス","15分
4分",4LDK,121.79m²,40年,8/1/79,8/1/79,居住中,相談,第１種低層住居専用地域63_buy_sell,"2,430万円",藤和ライブタウン甲陽園山王町B棟,西宮市甲陽園山王町1番89,甲陽園,阪急甲陽線,１２分,３LDK+N,104.16m²,36年,3/1/83,S58年３月,空家,即時,1種低層64_buy_sell,"3,980万円",デークランディア夙川,西宮市産所町13-3,さくら夙川,JR東海道本線,5分,２LDK,66.27m²,14年,11/1/05,平成17年11月,居住中,相談,第1種住居地域、近隣商業地域65_buy_sell,"1,690万円（税込）",武庫川ニュースカイハイツ　3階,兵庫県西宮市東鳴尾町2丁目２－１１,東鳴尾,阪神武庫川線,5分,３LDK,61.60m²,40年,10/1/79,10/1/79,空家,相談,第1種住居地域66_buy_sell,"4,980万円",ウィルグランデ甲子園,西宮市若草町2丁目,甲子園,阪神本線,15分,4LDK,101.80m²,13年,6/1/06,6/1/06,空家,相談,第１種中高層67_buy_sell,"6,280万円",ブラウド夙川　214号室,西宮市高塚町7番20号,"夙川
芦屋
仲池前","阪急神戸線
JR東海本線
バス","１１分
１０分
６分",４LDK+N,90.58m²,6年,10/1/13,平成２５年（２０１３年）１０月,空家,即可（売買代金決済後）,第１種低層住居専用地域68_buy_sell,"2,180万円",ファミール苦楽園,兵庫県西宮市獅子ヶ口町10-7,苦楽園口,阪急甲陽線,12分,5LDK+3S,248.24m²,18年,1/1/01,平成13年1月,空家,相談,第一種中高層住居専用地域69_buy_sell,"1,980万円",セレナ夙川,西宮市殿山町,"夙川
苦楽園口
さくら夙川","阪急神戸線
阪急甲陽線
JR神戸線","10分
18分
17分",2DK ,41.44m²,22年,10/1/97,10/1/97,居住中,期日指定（2018/9下旬）,第1種低層70_buy_sell,"1,880万円（税込）",セレナ夙川,兵庫県西宮市殿山町3-25,夙川,阪急神戸線,10分,１LDK,41.44m²,22年,10/1/97,10/1/97,空家,相談,第１種低層住居専用地域71_buy_sell,"5,380万円",ライオンズ苦楽園グランフォート,兵庫県西宮市樋之池町6-5,苦楽園口,阪急甲陽線,８分,２LDK ,70.65m²,8年,11/1/11,11/1/11,居住中,相談,第一種住居地域72_buy_sell,"2,590万円",ワコーシヴィル甲子園口,西宮市甲子園口2丁目5番3号,甲子園口,JR東海道本線,2分,２LDK,55.51m²,19年,10/1/00,平成12年（2000年）10月,居住中※平成30年7月末までに退去予定,平成30年8月1日以降,近隣商業地域73_buy_sell,"3,599万円（税込）",西宮マリナパークシティ・港のまち　ハーバーヴィラ南棟　4番館　208号室,西宮市西宮浜4-12-4,"西宮
マリナパーク南","阪神本線
バス","14分
1分",２LDK ,102.60m²,15年,7/1/04,平成16年7月,空室,相談,-74_buy_sell,"2,380万円",セントラル夙川東,西宮市越水町13-18,西宮,阪神本線,15分,2SLDK,72m²,21年,3/1/98,平成10年3月,居住中,期日指定　平成30年8月,第2種住居地域75_buy_sell,"1,180万円",メゾン門戸,西宮市野間町1-10,門戸厄神,阪急今津線,3分,２LDK,52.54m²,45年,4/1/74,昭和49年4月,居住中,相談,準住居地域76_buy_sell,"1,890万円（税込）",レジオン西宮,兵庫県西宮市今津大東町1-23,甲子園,阪神本線,10分,３LDK ,68.84m²,34年,1/1/85,1/1/85,空家,相談,近隣商業地域/第1種住居地域77_buy_sell,"1,840万円",西宮マリナパークシティ　杜のまち　4番館,西宮市西宮浜4丁目,"西宮
マリナパーク西","阪神本線
バス","13分
2分",３LDK ,79.57m²,21年,6/1/98,6/1/98,居住中,相談,第1種中高層78_buy_sell,"2,180万円",日商岩井香櫨園マンション1号棟,西宮市泉町1-1,香櫨園,阪神本線,15分,３LDK ,61.6m²,41年,2/1/78,昭和53年2月,空家,即時,準工業地域79_buy_sell,"1,198万円（税込）",武庫川あおそらのまち　25号棟,西宮市高須町2丁目1番25,武庫川団地前,阪神武庫川線,11分,２LDK ,56.63m²,39年,3/1/80,昭和55年3月,空室,即日,1種中高層80_buy_sell,"4,980万円",エクセレンス青門,西宮市南昭和町8-26,西宮北口,阪急神戸線,5分,３LDK,96.44m²,33年,5/1/86,昭和61年5月,居住中,相談,第1種中高層住居専用地域81_buy_sell,"3,290万円（税込）",ワコーレヒルズ苦楽園MIRAI 2階,兵庫県西宮市甑岩町3-21,苦楽園口,阪急甲陽線,14分,4LDK,83.20m²,10年,6/1/09,6/1/09,空家,相談,第1種中高層住居専用地域82_buy_sell,"2,990万円（税込）",フレーシェル鳴尾　406号室,西宮市小松西町2-6-12,"武庫川
鳴尾","阪神本線
阪神本線","8分
8分",３LDK,69.9m²,28年,7/1/91,平成3年7月,空室,相談,-83_buy_sell,"2,280万円",GSハイム夙川,兵庫県西宮市常磐町,"さくら夙川
西宮
夙川","JR東海道本線
阪神本線
阪急神戸線","6分
8分
11分",2SLDK,71.92m²,35年,5/1/84,5/1/84,居住中/自己利用中,2018年11月下旬,第一種中高層住居専用地域84_buy_sell,"2,600万円",プレアデス神垣町４０２号,西宮市神垣町８-２１,苦楽園口,阪急甲陽線,15分,３LDK,74.40m²,20年,1/1/99,H11年1月,空室,残金決済後即,第1種中高層85_buy_sell,"3,399万円（税込）",ローズハイツ夙川　６０９号室,西宮市寿町1-24,"夙川
さくら夙川","阪急神戸線
JR東海道本線","7分
9分",2SLDK,81.90m²,42年,11/1/77,昭和52年11月,空室,相談,-86_buy_sell,"1,480万円（税込）",メゾン夙川,西宮市室川町１-２２-３０２,"西宮
西宮","阪神本線
JR神戸線","13分
13分",２LDK,72.0m²,44年,10/1/75,S50年 10月,空家,残代金精算後即可,近隣商業地域87_buy_sell,"1,880万円",武庫川樹のまち第一第14号棟,西宮市高須町1丁目1-14,武庫川団地前,阪神武庫川線,10分,３LDK,99.69m²,33年,3/1/86,昭和60年3月,空室,即可（残代金精算後）,第一種中高層住居専用地域88_buy_sell,"1,888万円（税込）",西宮ハイツヤマト,兵庫県西宮市津門稲荷町11番25号,"西宮
阪神国道
今津","JR東海道本線
阪急今津線
阪神本線","9分
4分
8分",３LDK ,71.5m²,47年,8/1/72,昭和47年8月,空家,相談,第1種住居・近隣商業89_buy_sell,"3,350万円",エスリード西宮甲陽園Ⅱ番館,兵庫県西宮市甲陽園東山町９－３８,甲陽園,阪急甲陽線,13分,３LDK,78.72m²,6年,8/1/13,8/1/13,居住中,相談,第１種中高層住居専用地域90_buy_sell,"1,198万円",武庫川あおぞらのまち　210号室,兵庫県西宮市高須町2丁目,武庫川団地前,阪神武庫川線,１７分,３LDK,75.68m²,39年,3/1/80,１９８０年（昭和５５年）03月,空,即,１種中高91_buy_sell,"2,480万円",ロイヤルグラン夙川,西宮市神垣町6-15,苦楽園口,阪急甲陽線,15分,3LDK,65.47m²,16年,6/1/03,平成15年6月,所有者居住中,相談,第1種中高層住居専用地域92_buy_sell,"2,880万円",ネバーランド西宮鳴尾ソレイユ　2階204号室,西宮市鳴尾町1丁目15-3,鳴尾,阪神本線,4分,2SLDK,75.26m²,15年,1/1/04,平成16年1月,空家,相談,近隣商業地域93_buy_sell,"1,600万円",甲子園プラッツ,西宮市上甲子園4丁目3-2,"甲子園口
甲子園","JR神戸線
阪神本線
阪急神戸線","15分
18分",３DK,50.70m²,22年,11/1/97,平成9年11月,空家,相談,近隣商業地域94_buy_sell,"3,580万円",ディークラディア西宮,西宮市中前田町７-7,西宮,JR神戸線,5分,３LDK ,75.86m²,15年,5/1/04,平成16年5月,-,相談,第1種住居地域95_buy_sell,"1,980万円",西宮マリナパークシティ　杜のまち　4番館,西宮市西宮浜4丁目,西宮-マリナパーク西,阪神本線-バス,13分+2分,４LDK ,84.73m²,21年,6/1/98,6/1/98,空家,相談,第1種中高層96_buy_sell,"2,980万円",グラン・ソシェ甲子園口,兵庫県西宮市小曽根町1丁目,甲子園口,東海道本線,11分,３LDK ,69.74m²,20年,3/1/99,平成11年3月,所有者居住中,相談,97_buy_sell,"3,480万円",ラ・ヴィーダ西宮,西宮市池田町12-33,西宮,JR東海道本線,2分,２LDK ,74.08m²,26年,7/1/93,平成5年7月,居住,相談,近隣商業地域98_buy_sell,"2,080万円",ライオンズマンション西宮高座　C棟,西宮市高座町14-47,西宮北口,阪急神戸/今津線,１３分,３LDK ,67.39m²,30年,2/1/89,平成１年（1989年）2月,空室,即時,第1種中高層住居専用地域99_buy_sell,"1,549万円（税込）",シャルム甲陽園　611号室,西宮市上ヶ原山田町1-10,甲陽園,阪急甲陽線,15分,３LDK ,62.70m²,41年,4/1/78,昭和53年4月,空室,相談,-100_buy_sell,"53,800千円（税込）",ジオ甲子園口北町501号室,兵庫県西宮市甲子園口北町20-4,甲子園口,東海道本線,4分,-,78.48m²,7年,3/1/12,平成24年3月,入居中,-,第1種中高層住居専用地域101_buy_sell,"1,890万円",西宮朝凪アーバンコンフォート,西宮市久保町15-11-606号,西宮,阪神本線,16分,3LDK,66.3m²,23年,2/1/96,2/1/96,入居中,相談,準工業102_buy_sell,"1,970万円",夙川ビューハイツ　D棟,西宮市大谷町11-35,"夙川
芦屋","阪急神戸線
JR東海道本線","13分
19分",2LDK,86.61m²,45年,7/1/74,昭和49年7月,空室,相談,第1種中高層住居専用地域103_buy_sell,"1,880万円（税込）",マンション塚口　5階507号室,尾崎市塚口町4丁目25-3,塚口,阪急神戸線,11分,2LDK,61.73m²,46年,3/1/73,昭和48年3月,空室,即可（残金支払後）,第一種中高層住居専用地域・第一種住居地域104_buy_sell,"1,850万円",西宮マリナパークシティ杜のまち　1番館,西宮市西宮浜四丁目10-1,"西宮
マリナパーク西","阪神本線
バス","13分
1分",２LDK,66.80m²,21年,6/1/98,平成10年6月,空室,相談,第一種中高層住居専用地域105_buy_sell,"1,880万円（税込）",日商岩井甲陽園マンション4階,兵庫県西宮市甲陽園本庄町6-25,甲陽園,阪急甲陽線,1分,2SLDK,61.43m²,48年,8/1/71,8/1/71,空家,相談,近隣商業地域106_buy_sell,"2,450万円（税込）",ステイツ甲子園口二丁目,西宮市甲子園口2丁目,甲子園口,JR神戸線,6分,１SLDK ,60.26m²,23年,9/1/96,平成8年9月,空家,相談,近隣商業地域107_buy_sell,"2,980万円（税込）",ローズハイツ夙川　5階,兵庫県西宮市寿町1-24,夙川,阪急神戸線,7分,2SLDK,77.54m²,42年,11/1/77,11/1/77,空家,相談,第1種住居地域108_buy_sell,"3,400万円",モンテベルデ甲陽園,西宮市甲陽園東山町9-64,甲陽園,阪急甲陽線,7分,4LDK,146.07m²,28年,3/1/91,平成3年3月,居住中,相談,第1種中高層109_buy_sell,"5,980万円",ジオ苦楽園桜町,兵庫県西宮市桜町,苦楽園口,阪急甲陽線,9分,３SLDK,90.32m²,5年,7/1/14,7/1/14,所有者居住中,相談,1種低層110_buy_sell,"2,980万円（税込）",ローズハイツ夙川　5階,兵庫県西宮市寿町1-24,夙川,阪急神戸線,7分,2SLDK,77.54m²,42年,11/1/77,11/1/77,空家,相談,第1種住居地域111_buy_sell,"3,400万円",モンテベルデ甲陽園,西宮市甲陽園東山町9-64,甲陽園,阪急甲陽線,7分,4LDK,146.07m²,28年,3/1/91,平成3年3月,居住中,相談,第1種中高層112_buy_sell,"5,980万円",ジオ苦楽園桜町,兵庫県西宮市桜町,苦楽園口,阪急甲陽線,9分,３SLDK,90.32m²,5年,7/1/14,7/1/14,所有者居住中,相談,1種低層113_buy_sell,"1,780万円",鐘紡夙川台マンション,西宮市樋之池町,"苦楽園口
苦楽園口-老松町","阪急甲陽線
阪急甲陽線-バス","13分
5分+2分",2LDK,67.10m²,67年,12/1/52,昭和27年12月,空室,-,第1種中高層住居専用地域114_buy_sell,"3,400万円",エスリード西宮甲陽園II番館エアーズ　2階３１２号室,西宮市甲陽園東山町９-３８,甲陽園,"阪急甲陽線
バス",13分,3LDK,84.35m²,6年,8/1/13,平成25年8月,居住中,相談,第1種中高層住居専用地域115_buy_sell,"2,180万円",西宮マリナパークシティ杜のまち　４番館,西宮市西宮浜4丁目,"西宮
マリナパーク西","阪神本線
バス","13分
2分",４LDK ,87.05m²,21年,6/1/98,6/1/98,居住中,相談,第１種中高層116_buy_sell,"3,780万円",ルネヒューマンズガーデンパラディオC棟　4階425号室,西宮市浜甲子園四丁目1-24,甲子園,阪神本線,１５分,４LDK-N,107.11m²,18年,1/1/01,平成１４年１月,空家,相談,第１種住居地域。第1種中高層住居専用地域117_buy_sell,"1,580万円",日商岩井香枦園マンション一号館　1階,西宮市泉町1-1,香櫨園,阪神本線,15分,３LDK,71.50m²,41年,2/1/78,昭和53年2月,空家/空室,相談,準工業地域118_buy_sell,"3,490万円（税込）",ローズハイツ夙川　411号室,西宮市寿町1-24,"夙川
さくら夙川","阪神神戸線
JR東海道本線","7分
7分",２LDK＋２S  ,81.90m²,42年,11/1/77,昭和52年11月,空室,相談,-119_buy_sell,"1,1980万円",シャートー西宮,西宮市高木東町31-20,"西宮北口
門戸厄神
甲子園口","阪急神戸線
阪急今津線
JR神戸線","10分
12分
28分",３LDK,63.25m²,46年,10/1/73,10/1/73,空家,相談,第1種中高層120_buy_sell,"1,498万円",鐘紡夙川台マンション,西宮市樋之池町25-58 ,苦楽園口,阪急甲陽線,12分,３LDK,67.1m²,47年,12/1/72,昭和47年12月,空家,即時,第一種中高層住居専用地域121_buy_sell,"3,790万円",香枦園アーバンライフ　2階,西宮市上葭原町2番14,香櫨園,阪神本線,9分,３LDK+WIC,81.27m²,22年,3/1/97,平成9年（1997年）3月,空家,相談,第1種中高層住居専用地域122_buy_sell,"1,798万円",今津浜パークタウン19号棟　3階,兵庫県西宮市今津真砂町1番19,久寿川,阪神本線,14分,４LDK,92.56m²,36年,3/1/83,3/1/83,空家,相談,第1種住居地域123_buy_sell,"2,750万円",プレアデス神垣,西宮市神垣町8-21-601,"苦楽園口
西宮北口","阪急甲陽線
阪急神戸線","17分
23分",３LDK,74.4m²,20年,3/1/99,H11年3月,空家,残代金精算後即可,第一種中高層住居専用地域124_buy_sell,"5,780万円",プラウド夙川,西宮市高塚町7-20,"夙川
芦屋","阪急電鉄
JR線","11分
10分",２LDK,77.27m²,6年,10/1/13,平成25年10月,空家,即時,第一種低層125_buy_sell,"3,290万円",ル・サンク西宮武庫川,兵庫県西宮市小松東町2丁目1-3,武庫川,阪神本線,720m,３LDK,70.83m²,10年,2/1/09,平成21年2月,所有者居住中,期日指定<2018年6月中旬>,第二種中高層住居専用地域126_buy_sell,"1,780万円",武庫川はなのまち30号棟,兵庫県西宮市高須町2丁目1-30,"洲先
鳴尾","阪神武庫川線
阪神本線","16分
18分",３LDK,73.66m²,29年,3/1/90,3/1/90,空家,即時,第一種中高層住居専用地域127_buy_sell,"2,180万円",西宮東町アーバンコンフォート,西宮市東町一丁目14番２０,"西宮
今津","阪神本線
阪神本線・阪急今津線","18分
17分",４LDK,75.24m²,23年,11/1/96,平成8年11月,空家,即時,準工業128_buy_sell,"5,380万円",夙川苦楽園口レジデンス,兵庫県西宮市神園町,苦楽園口,阪急甲陽線,8分,4LDK+N+WIC,87.34m²,6年,11/1/13,平成25年（2013年）11月,居住中,相談,第一種中高層住居専用地域129_buy_sell,"5,980万円",-,兵庫県西宮市甲子園二番町2-42,甲子園口,東海道本線,1040m,４LDK ,128.35m²,1年,10/1/18,平成30年10月,未完成,相談,第一種中高層住居専用地域130_buy_sell,"3,680万円（税込）",西宮市上ケ原山手町新築戸建,西宮市上ケ原山手町５－４,"甲陽園
仁川
甲東園","阪急甲陽線
阪急今津線
阪急今津線","22分
23分
25分",３LDK,82.62m²,1年,7/1/18,平成30年7月,建築中,平成30年7月,第二種低層住居131_buy_sell,"6,980万円",‐,西宮市西田町5－20,"夙川
西宮","阪急神戸線
阪神本線","12分
12分",５LDK ,162.67m²,41年,11/1/78,昭和53年11月,空,引渡し即,近隣商業132_buy_sell,"5,980万円（税込）",-,西宮市平松町,"さくら夙川
西宮
夙川","JR神戸線
阪神本線
阪急神戸線","7分
7分
14分",4LDK,119.01m²,1年,4/1/18,4/1/18,空家,即時,第１種中高層133_buy_sell,"3,380万円（税込）",‐,西宮市平松町浜甲子園2丁目１７－１３,"甲子園
浜甲子園二丁目","阪神本線
バス","10分
4分",2SLDK,90.69m²,1年,9/1/18,9/1/18,完成済（案内可能）,即時,第一種中高層住居専用地域134_buy_sell,"4,480万円（税込）",-,西宮市老松町8番,苦楽園口,阪急甲陽線,15分,4LDK,115.20m²,-,-,新築（未完成）,未完成,相談,第二種低層135_buy_sell,"4,580万円（税込）",神原新築一戸建　2号地,西宮市神原　2号地,苦楽園口,阪急甲陽線,11分,４LDK,91.74m²,1年,4/1/18,平成30年4月,完成済,相談,第一種中高層住居専用地域136_buy_sell,"4,580万円（税込）",神原新築一戸建　1号地,西宮市神原　1号地,苦楽園口,阪急甲陽線,11分,４LDK,91.09m²,1年,4/1/18,平成30年4月,完成済,相談,第一種中高層住居専用地域137_buy_sell,"4,280万円",小松西町新築戸建,西宮市小松西町2丁目5番街区,"鳴尾
武庫川","阪神
阪神","7分
9分",３LDK,102.07m²,1年,6/1/18,平成30年6月,完成済,相談,第1種住居地域138_buy_sell,"3,890万円（税込）",-,西宮市西平町12-8-3,苦楽園口,阪急甲陽線,12分,４LDK ,82.43m²,1年,9/1/18,H30年9月,-,即時,第一種中高層住専139_buy_sell,"4,780万円",西宮市若草町2丁目　A号棟,兵庫県西宮市若草町2丁目2-24,"鳴尾
甲子園口
甲子園口","阪神線
東海道本線-バス
東海道本線","12分
6分
11分",４LDK,102.56m²,1年,5/1/18,平成30年5月,完成済,相談,第一種中高層住居専用地域140_buy_sell,"5,880万円",西宮市大森町　中古一戸建,西宮市大森町6番13号,"西宮北口
甲子園口","阪急神戸線
JR東海道本線","16分
18分",４SLDK,115.34m²,3年,5/1/16,平成28年5月,空家,即時,第一種中高層住居専用地域141_buy_sell,"3,680万円",浜甲子園1丁目　中古戸建,西宮市浜甲子園1丁目４－１１,甲子園,阪神本線,17分,３LDK,99.57m²,13年,5/1/06,平成18年5月,空,相談,第一種中高層住居専用地域142_buy_sell,"5,980万円",-,西宮市甲陽園西山町14-37,甲陽園,阪急甲陽線,6分,3LDK+ロフト,111.42m²,12年,11/1/07,11/1/07,空家,相談,第1種低層143_buy_sell,"2,880万円",-,西宮市上ケ原九番町２－３３,"西宮北口
上ヶ原南口","阪急神戸線
バス","20分
5分",３LDK＋N,106.14m²,24年,11/1/95,平成7年11月,空家,相談,第1種中高層住専144_buy_sell,"4,380万円",-,兵庫県西宮市甲子園浦風町,甲子園,阪神本線,6分,4LDK+N,164.53m²,29年,9/1/90,9/1/90,空家,相談,第2種中高層住居専用地域145_buy_sell,"5,650万円（税込）",-,西宮市上鳴尾５－７,"鳴尾
甲子園","阪神本線
阪神本線","6分
10分",3LDK,132.82m²,19年,1/1/00,平成12年1月,空家,即,第1種中高層146_buy_sell,"3,980万円",小松南町1丁目新築戸建　A号地,西宮市小松南町1丁目10-5,武庫川,阪神,4分,２SLDK+WIC,97.13m²,1年,1/1/18,平成30年1月,完成済,相談,第1種住居地域147_buy_sell,"7,780万円（税込）",リプレの家　仁川町4丁目I　1号地,西宮市仁川町4丁目,仁川,阪急電鉄,11分,４LDK,114.02m²,-,-,新築,完成済,相談,第1種低層住居専用地域148_buy_sell,"4,850万円",パークライフ　愛宕山　中号地,西宮市愛宕山19,西宮北口,阪急神戸線,15分,４LDK+書斎,127.16m²,1年,3/1/18,H30年3月,完成済,相談,第一種低層住専149_buy_sell,"4,180万円（税込）",-,兵庫県西宮市大島町10-5,"門戸厄神
甲東園","阪急今津線
阪急今津線","15分
14分",４LDK,100.6m²,9年,12/1/10,平成22年12月,空家,相談,第一種中高層住居専用地域150_buy_sell,3680万円,甲陽園目神山町　一戸建,西宮市甲陽園目神山町26番25号,甲陽園,阪急,20分,-,146.99m²,9年,6/1/00,平成12年6月,空家,即,第1種低層住居専用地域151_buy_sell,"5,280万円",-,兵庫県西宮市段上町8丁目4-16付近　B号棟,甲東園,阪急今津線,11分,４LDK,99.43m²,1年,5/1/18,平成30年5月,建築中,要相談,第一種中高層住居専用地域152_buy_sell,"4,880万円",-,兵庫県西宮市段上町8丁目4-16付近　A号棟,甲東園,阪急今津線,11分,４LDK,98.95m²,1年,5/1/18,平成30年5月,完成済,要相談,第一種中高層住居専用地域153_buy_sell,"3,890万円（税込）",-,西宮市甲子園三番町6番10付近,甲子園,阪神本線,16分,４LDK,92.06m²,1年,3/1/18,平成30年3月,空家,平成30年3月末完成済,第一種中高層住居専用地域154_buy_sell,5880万円（税込）,甲子園口1丁目　新築一戸建,西宮市甲子園口1丁目8番,甲子園口,JR,7分,-,96.14m²,-,-,新築,建築中,建物完成後,第1種中高層住居155_buy_sell,"3,480万円",-,西宮市小松町1丁目,武庫川,阪神本線,10分,３LDK,90.30m²,1年,5/1/18,5/1/18,空家,相談,第2種中高層156_buy_sell,"5,280万円",西宮市若草町2丁目　C号棟,兵庫県西宮市若草町2丁目2-24,"鳴尾
甲子園口","阪神線
東海道本線","12分
6分・11分",４LDK,99.12m²,1年,5/1/18,平成30年5月,完成済,相談,第一種中高層住居専用地域157_buy_sell,"4,780万円",西宮市若草町2丁目　B号棟,兵庫県西宮市若草町2丁目2-24,"鳴尾
甲子園口","阪神線
東海道本線","12分
6分・11分",４LDK,99.12m²,１年,5/1/18,平成30年5月,完成済,相談,第一種中高層住居専用地域158_buy_sell,"5,380万円",-,西宮市川東町1番5号跡,"香櫨園
さくら夙川","阪神
JR","5分
9分",４LDK,100.19m²,-,-,-,完成済,-,第1種中高層住居専用地域159_buy_sell,"5,380万円",アベニュー鷲林寺南町,西宮市鷲林寺南町26-23,夙川,阪急神戸線,15分・3分,４LDK ,133.53m²,-,-,建築中,建築中,相談,第一種低層住居専用地域160_buy_sell,"4,780万円（税込）",西宮市　久出ケ谷町　新築戸建,西宮市久出ケ谷町14-31-2,夙川,阪急神戸線,9分,-,82.08m²,-,-,-,-,-,第1種低層住専161_buy_sell,"6,180万円（税込）",西宮市甲東園1丁目新築一戸建（C号地）,西宮市甲東園1丁目10番26付近,甲東園,阪急今津線,４分,４LDK+N,117.44m²,2年,9/1/17,平成２９年９月,完成,相談,第１種中高層住居専用地域162_buy_sell,"5,880万円（税込）",西宮市甲東園1丁目新築一戸建（B号地）,西宮市甲東園1丁目10番25付近,甲東園,阪急今津線,４分,３LDK+N,123.59m²,2年,9/1/17,平成２９年９月,完成,相談,第１種中高層住居専用地域163_buy_sell,"5,480万円",段上町八丁目　新築戸建　B号棟,兵庫県西宮市段上町８丁目,甲東園,阪急今津線,880m,４LDK ,99.43m²,1年,5/1/18,平成30年5月,未完成<2018年5月>,相談,第一種中高層住居専用地域164_buy_sell,"5,080万円",段上町八丁目　新築戸建　A号棟,兵庫県西宮市段上町８丁目,甲東園,阪急今津線,880m,４LDK ,98.95m²,1年,5/1/18,平成30年5月,未完成<2018年5月>,相談,第一種中高層住居専用地域165_buy_sell,"6,380万円",-,兵庫県西宮市鳴尾町4丁目,鳴尾,阪神本線,7分,４SLDK,130.31m²,1年,2/1/18,平成30年2月,空家,即時,第一種住居地域166_buy_sell,"4,980万円",甲陽園本庄町　新築分譲住宅,西宮市甲陽園本庄町6番53号,甲陽園,阪急,3分,４LDK ,101.25m²,2年,3/1/18,平成30年3月,建築中,建物完成後,近隣商業地域167_buy_sell,"3,580万円",-,兵庫県西宮市高座町,西宮北口,阪急神戸線,3分,3LDK,82.8m²,23年,1996年,平成8年,空家,相談,第一種低層住居専用地域168_buy_sell,"3,780万円",グラシエール西宮戎,西宮市馬場町,"西宮
さくら夙川","阪神本線
JR神戸線",11分,３ＬＤＫ,70.94m²,15年,9/1/04,9/1/04,居住中,相談　契約後3カ月,商業169_buy_sell,"1,830万円",西宮東町アーバンコンフォート,兵庫県西宮市東町1丁目,西宮,阪神本線,19分,３LDK,63.94m²,23年,11/1/96,11/1/96,所有者居住中,相談,1種住居170_buy_sell,"1,880万円",苦楽園レックスマンション　3階,兵庫県西宮市老松町,苦楽園口,阪急甲陽線,17分,５LDK ,141.46m²,45年,3/1/74,昭和49年（1974年）3月,空家,相談,第一種中高層住居専用地域171_buy_sell,"1,750万円",メガロコープ西宮II　１号棟　705号室,西宮市久保町10-26　705号室,西宮,阪神電鉄,14分,２LDK,69.30m²,45年,3/1/74,昭和49年10月,空家,即日,準工業地域172_buy_sell,1500万円,武庫川ニュースカイハイツ　4階,西宮市東鳴尾町2丁目2番１１,東鳴尾,阪神武庫川線,3分,２LDK ,75.60m²,40年,10/1/79,昭和54年10月,居住中,相談,第一種住居地域173_buy_sell,"2,480万円",ステイツ香櫨園ヴァンサンク,西宮市建石町,"香櫨園
さくら夙川
西宮","阪神本線
JR神戸線
阪神本線","8分
13分
15分",２LDK ,64.20m²,21年,3/1/98,3/1/98,空家,即時,第1種住居174_buy_sell,"3,380万円",プリンスハイツ鳴尾北　1階,兵庫県西宮市小松西町2丁目6-46,鳴尾,阪神本線,8分,３LDK,87.75m²,19年,10/1/00,10/1/00,空家,相談,第1種住居地域175_buy_sell,"3,149万円",グランミュゼ香櫨園　101号室,西宮市松下町5-9,"香櫨園
さくら夙川","阪神本線
東海道本線","3分
9分",２LDK ,75.62m²,28年,5/1/91,平成3年5月,空室,相談,-176_buy_sell,"4,980万円",-,西宮市大畑町,"西宮北口
西宮","阪急神戸線
JR神戸線","11分
14分",4LDK,97.55m²,1年,4/1/18,4/1/18,未完成,期日指定（2017/4下旬）,第１種中高層177_buy_sell,"4,280万円",甲子園九番町新築一戸建,西宮市甲子園九番町7-7,甲子園,阪神本線,１２分,４LDK,95.17m²,1年,4/1/18,4/1/18,完成済,-,第１種中高層178_buy_sell,"1号棟：3,080万円
2号棟：3,380万円",-,兵庫県伊丹市堀池一丁目247番,新伊丹,阪急伊丹線,２０分,-,"1号棟：97.71m²
2号棟：99.98m²",1年,6/1/18,平成３０年６月,-,-,第一種中高層住居専用地域179_buy_sell,"5,800万円",-,伊丹市千僧6丁目１３－,伊丹,阪急伊丹線,１５分,４SLDK,116.98m²,13年,3/1/06,平成18年3月,居住中,相談,第1種低層住居専用地域180_buy_sell,"3,780万円",-,伊丹市緑ヶ丘4丁目13番地１　A号棟,県立高校前,阪急バス,1分,４LDK,89.72m²,1年,5/1/18,平成30年5月,建築中,要相談,第一種低層住居専用地域181_buy_sell,"1,380万円（税込）",伊丹市藤ノ木3丁目中古戸建,伊丹市藤ノ木3丁目3-6,伊丹,JR福知山線,9分,３LDK,63.58m²,27年,1/1/92,平成4年1月,空・リフォーム2018年5月11日完成,即,準工業地域182_buy_sell,"4,080万円",伊丹市野間7丁目　新築戸建,兵庫県伊丹市野間7丁目,"武庫之荘
近畿中央病院","阪急神戸線
阪神バス","１７分
８分＋２分",４LDK ,101.25m²,1年,6/1/18,平成３０年６月,空家,相談,第一種中高層住居専用地域183_buy_sell,"2,780万円",-,伊丹市南野北3丁目1-27,"新伊丹
塚口-美鈴町","阪急伊丹線
阪急神戸線-バス","１８分
４分",４LDK,107.73m²,8年,10/1/11,平成２３年１０月,居住中,相談,第２種中高層住居専用地域184_buy_sell,"2,730万円（税込）",尼崎市南竹谷町1丁目新築戸建,尼崎市南竹谷町1丁目17-4付近,出屋敷,阪神本線,４分,３LDK,97.11m²,2年,9/1/17,平成２９年９月,完成済　平成29年9月完成,相談,近隣商業地域185_buy_sell,"2,380万円",武庫川町3丁目一戸建住宅,尼崎市武庫川町3丁目72-6,武庫川,阪神本線,３分,４LDK,121.46m²,20年,7/1/99,平成11年7月,空家,相談,近隣商業地域186_buy_sell,2980万円（税込）,-,尼崎市若王寺三丁目177番2,"園田
尼崎","阪急
JR","１５分
２５分",４LDK,121.46m²,1年,3/1/18,2018年3月（平成30年3月）,完成済,即時,第１種中高層住居専用地域・第１種住居地域187_buy_sell,"3,380万円",-,尼崎市次屋3丁目6-1,尼崎,東海道本線,22分,４LDK,85.37m²,14年,6/1/05,2005年（平成17年）6月,空,相談,準工業地域188_buy_sell,"3,280万円（税込）",-,尼崎市武庫之荘8丁目13-20,武庫之荘,"阪急神戸線
バス","5分
4分",４LDK,93.3m²,1年,3/1/18,H30年3月,建築中,相談,第1種中高層住居専用地域189_buy_sell,"1,680万円",尼崎市稲葉荘一丁目中古戸建,尼崎市稲葉荘一丁目5-25,"立花
武庫川","JR東海道本線
阪神電鉄","13分
15分",４LDK,70.93m²,38年,7/1/81,昭和56年7月,空家,即時,第一種中高層190_buy_sell,"3,380万円（税込）",Livele Garden. S 尼崎市西川,兵庫県尼崎市西川2丁目31-8,尼崎,東海道本線,15分,３SLDK,104.74m²,1年,7/1/18,平成30年7月,平成30年7月完成済,相談,第一種住居地域191_buy_sell,"3,280万円",東難波町　新築一戸建,尼崎市東難波町五丁目25番26号,尼崎,阪神本線,10分,４LDK ,110.43m²,1年,8/1/18,8/1/18,完成済,-,工業192_buy_sell,3.080万円（税込）,-,伊丹市中野東1丁目28番の一部　D号地,伊丹,"阪急伊丹線
バス","7分
4分",３LDK,95.70m²,1年,4/1/18,平成30年4月,建築中,-,第一種中高層住居専用地域193_buy_sell,"3,980万円",-,伊丹市御願塚6丁目8-9-2,新伊丹,阪急伊丹線,8分,４LDK+N ,106.92m²,15年,3/1/04,平成16年3月,空家,相談,"第一種低層住居専用地域
第二種低層住居専用地域"194_buy_sell,"3,180万円",-,兵庫県尼崎市東園田町6丁目71-11,園田,阪急神戸線,10分,４LDK ,84.54m²,15年,6/1/04,2004年（平成16年）6月,空,相談,1種中高195_buy_sell,"2,880万円",尼崎市稲葉荘三丁目戸建て,尼崎市稲葉荘三丁目59番地６,"立花
稲葉荘4丁目","東海道本線
バス","7分
2分",３LDK+N ,95.91m²,11年,10/1/08,平成20年10月,居住中,相談,第1種中高層住専196_buy_sell,"1,980万円（税込）",常松2丁目　中古戸建,尼崎市常松2丁目17-8,"武庫之荘
常陽中学校","阪急神戸線
バス","10分
4分",４LDK ,110.12m²,23年,3/1/96,平成8年3月,空家,即時,第一種中高層197_buy_sell,"2,580万円",田能1丁目　中古戸建,尼崎市田能1丁目2-5,園田,阪急神戸線,16分,４LDK,101.25m²,16年,12/1/03,2003（平成15年）年12月,空,相談,第一種中高層住居専用地域198_buy_sell,"7,680万円",武庫の里1丁目　中古戸建,尼崎市武庫の里1丁目18-31,"武庫之荘
友行西口バス停","阪急神戸線
バス","8分
3分",４LDK ,148.89m²,35年,3/1/84,1984（昭和59年）3月,空,相談,第一種中高層住居専用地域199_buy_sell,"3,580万円",食満6丁目　新築戸建,尼崎市食満6丁目15-5,園田,阪急神戸線,14分,４LDK ,102.06m²,-,-,新築,建築中,相談,第一種中高層200_buy_sell,"1,928万円",-,尼崎市塚口本町7丁目17-18,塚口,阪急神戸線,12分,２DK,49.03m²,38年,4/1/81,昭和56年4月,空家,相談,工業地域201_buy_sell,"2,780万円（税込）",-,尼崎市久々知西町2丁目6-37,尼崎,JR神戸線,19分,３LDK ,91.55m²,-,-,未定,解体予定,相談,準工業地域202_buy_sell,"2,490万円（税込）",レジデンス昆陽　410号室,伊丹市昆陽3-134,伊丹,阪急伊丹線,15分,３LDK,75.45m²,27年,11/1/92,平成4年11月,空室,相談,-203_buy_sell,"2,540万円",パレ伊丹ファンインステイII　4階,伊丹市昆陽東5丁目1-1,"伊丹
伊丹-札場辻","阪急伊丹線
阪急伊丹線-バス","17分
10分+1分",３LDK ,69.81m²,11年,11/1/08,平成20年11月,居住中,相談,近隣商業地域204_buy_sell,"2,080万円",エステムコート伊丹緑ヶ丘グレイス,伊丹市緑ヶ丘6丁目,"伊丹-緑ヶ丘7丁目
北伊丹","阪急伊丹線-バス
JR宝塚","15分+2分
25分",３LDK ,60.76m²,8年,1/1/11,1/1/11,空家,相談,第２種中高層205_buy_sell,"2,298万円",伊丹パークホームズ,兵庫県伊丹市北本町1丁目110-1-2,"伊丹
伊丹","福知山線
阪急伊丹線","7分
10分",３LDK ,71.22m²,33年,11/1/86,昭和61年11月,空家,相談,準工業地域206_buy_sell,"2,280万円",メイツブラン伊丹,兵庫県伊丹市北河原3丁目,伊丹,福知山線,13分,１SLDK ,60.6m²,2年,7/1/16,平成28年7月,空家,即時,準工業地域207_buy_sell,"1,150万円",-,尼崎市西長洲2丁目17-10,尼崎,阪神線,10分,３LDK+2N,92.4m²,47年,9/1/72,昭和47年9月,空,即,第2種住居地域208_buy_sell,2580万円（税込）,尼崎市杭瀬南新町1丁目　新築戸建,尼崎市杭瀬南新町一丁目44番地2,杭瀬,阪神本線,4分,1LDK+2S,70.20m²,-,-,未完成,未完成,相談,第2種住居209_buy_sell,"3,480万円（税込）",-,兵庫県尼崎市東園田町８丁目８０-２０,園田,阪急神戸線,-,４LDK,104.49m²,-,-,-,空家,即時,第一種中高層住居専用地域210_buy_sell,"2,880万円（税込）",-,尼崎市開明町2丁目47-10,尼崎,阪神本線,7分,３LDK ,97.81m²,1年,4/1/18,平成30年4月,建築中,相談,第二種住居地域211_buy_sell,"2,950万円（税込）",-,尼崎市大島2丁目16-7,武庫川,阪神本線,14分,-,112.05m²,1年,5/1/18,平成30年5月,未完成（30年5月予定）,相談,1中212_buy_sell,"1,350万円",パレ伊丹北,伊丹市東野3丁目52,"伊丹
東野バス停","阪急伊丹線
バス","15分
4分",３LDK,64.04m²,26年,10/1/93,1993（平成5年）年10月,居住中,相談,第二種中高層住居専用地域213_buy_sell,"2,498万円",リブコート伊丹駅前,兵庫県伊丹市伊丹1丁目,伊丹,福知山線,2分,3LDK,53.46m²,22年,1/1/97,平成9年1月,空家,相談,-214_buy_sell,"1,730万円（税込）",イスズハイツベル伊丹参号,兵庫県伊丹市西台3丁目7-27,伊丹,阪急伊丹線,3分,２LDK ,52.80m²,35年,9/1/84,9/1/84,空家,相談,商業地域215_buy_sell,"1,580万円",野間ダイヤハイツ,伊丹市野間北5丁目2-4,塚口,阪急神戸,1分,４LDK ,91.26m²,33年,11/1/86,昭和61年11月,空家,相談,第一種中高層住居専用地域・第二種中高層専用地域216_buy_sell,"1,580万円（税込）",ヴィールメゾン昆陽池公園,伊丹市瑞穂町6丁目,"伊丹
瑞ヶ丘公園前","阪急伊丹線
バス","9分
5分",３DK,53.39m²,22年,5/1/97,5/1/97,空家,即時,第1種中高層217_buy_sell,"1,680万円",エンゼルハイム伊丹,伊丹昆陽南1丁目,"伊丹
札場辻","阪急伊丹線
バス","8分
3分",３LDK,69.96m²,29年,8/1/90,8/1/90,空家,相談,第2種中高層218_buy_sell,"1,880万円",ウィングコート伊丹大野　5階513室,兵庫県伊丹市大野3丁目77番513号室,"伊丹
山本団地","阪急伊丹線
バス","/
2分",3LDｋ,72.54m²,1年,1/1/18,平成30年1月,空家,即可（残代金精算後）,第一種中高層住居専用地域219_buy_sell,"1,680万円",ラ・ヴィール伊丹昆陽池,伊丹市鴻池2丁目12番１２A棟-1309,"伊丹
南畑","阪急伊丹線
伊丹市バス","15分
2分",２LDｋ,69.94m²,21年,2/1/98,平成10年02月,空室,即可,第2種住居220_buy_sell,"1,690万円（税込）",カルム西伊丹　7階,兵庫県伊丹市池尻3丁目304番,"伊丹
池尻バス停","阪急伊丹線
バス","15分
3分",３LDK,61m²,31年,3/1/88,3/1/88,空家,相談,工業地域221_buy_sell,"1,280万円",パレ伊丹北　II　1階106号室,伊丹市東野3丁目49-2,"伊丹
東野","阪急伊丹線
バス","15分
4分",３LDK,60.54m²,25年,6/1/94,平成6年6月,居住中,相談,第二種中高層住居専用地域222_buy_sell,"2,380万円（税込）",パレ緑ヶ丘公園　309号室,兵庫県伊丹市大鹿4丁目73,伊丹,阪急伊丹線,18分,２LDK＋S,72.81m²,23年,10/1/96,平成8年10月,空室,相談,第1種中高層住居専用地域223_buy_sell,"1,450万円",パレ昆陽池公園I　6階,伊丹氏東野東1丁目298,"伊丹
スポーツセンター前","阪急伊丹線
バス","13分
6分",２LDK,63.93m²,25年,6/1/94,平成6年12月,空家,即,第一種中高層住居専用地域224_buy_sell,"2,070万円（税込）",伊丹レックスマンション　3階,兵庫県伊丹市北本町1丁目210,伊丹,福知山線,6分,３LDK,70.98m²,32年,3/1/87,3/1/87,空家,相談,準工業地域225_buy_sell,"3,280万円（税込）",エスリード伊丹南本町,伊丹市南本町7丁目１－１,新伊丹,阪急伊丹線,6分,３LDK,66.93m²,15年,1/1/04,平成16年1月,空家,即時,工業地域226_buy_sell,3180万円（税込）,セーリオ伊丹フロンテ,伊丹市伊丹1丁目,"伊丹
伊丹","JR
阪急","3分
15分",３LDK,70.81m²,12年,5/1/07,平成19年5月,空室,即,商業地域227_buy_sell,"3,290万円",ユニライフ伊丹駅前　8階,兵庫県伊丹市伊丹1丁目13番４７,伊丹,福知山線,3分,４LDK,75.36m²,21年,2/1/98,2/1/98,居住中,相談,商業地域228_buy_sell,1850万円（税込）,コープ野村第2伊丹E棟,兵庫県伊丹市東有岡1丁目18番2号506室,伊丹,JR宝塚線,2分,４LDK,75.76m²,37年,7/1/82,昭和57年7月,空家,即時,商業地域229_buy_sell,"2,230万円",ローズコーポ新伊丹,兵庫県伊丹市平松5丁目1-15-203号室,新伊丹,阪急伊丹線,2分,3LDｋ,59.12m²,23年,1/1/96,1/1/96,空家,相談,第一種中高層住居専用地域230_buy_sell,"2,790万円（税込）",グランドメゾン伊丹池尻リテラシー　224号室,伊丹市池尻4-1-5,"伊丹
池尻","阪急伊丹線
バス","15分
3分",３LDK ,74.42m²,10年,1/1/09,平成21年1月,空室,相談,-231_buy_sell,"2,380万円（税込）",フレクサンス尼崎西本町　301,兵庫県尼崎市西本町3丁目5,尼崎,阪神本線,6分,3LDK,68.05m²,21年,12/1/98,12/1/98,空家,相談,近隣商業地域232_buy_sell,"3,590万円（税込）",ウィルス塚口　8階,兵庫県尼崎市南塚口町8丁目6番33号,塚口,阪急神戸線,8分,３LDK,68.84m²,10年,11/1/09,11/1/09,空家,即時,第2種中高層住居専用地域233_buy_sell,"1,280万円",パレ武庫川ブルミエール２,尼崎市西昆陽2丁目８－３,武庫之荘,阪急神戸線,10分+5分,３LDｋ,75.45m²,35年,11/1/84,昭和59年11月,空家,即時,第1種中高層住居専用地域234_buy_sell,"2,000万円",浜ダイヤハイツ,兵庫県尼崎市浜2丁目,尼崎,JR東海道本線,11分,３LDK,69.30m²,34年,8/1/85,1985年（昭和60年）08月,居住中,相談,1種○○235_buy_sell,"1,980万円",ユニハイム尼崎グリンシア,尼崎市杭瀬南新町4丁目5-6,大物,阪神本線,6分,３LDｋ,64.80m²,22年,2/1/97,平成9年2月,空,相談,工業地域236_buy_sell,1380万円,ルネ武庫川２番館,尼崎市稲葉荘1丁目19番22　705号室,甲子園口,JR東海道本線,19分,３LDK,68.67m²,33年,5/1/86,昭和61年5月,空家,即時,第一種中高層237_buy_sell,"2,580万円（税込）",ベレッツァ尼崎　1403号室,尼崎市神田北通4丁目101番地,尼崎,阪神本線,7分,２LDK ,66.10m²,15年,2/1/04,平成16年2月,空家,即時,商業地域238_buy_sell,"2,790万円",グランドメゾン伊丹池尻リテラシシティ,兵庫県伊丹市池尻4丁目1-5　224号,"伊丹
池尻","阪急伊丹線
バス","15分
3分",3LDK,74.42m²,10年,1/1/09,2009（平成21年）年01月,空室,相談,-239_buy_sell,"1,380万円",武庫之荘パークハイツ,尼崎市南武庫之荘三丁目36番15,武庫之荘,阪急神戸線,5分,２DK,46.05m²,41年,11/1/78,昭和53年11月,空室,相談,第1種中高層住居専用地域・第1種住居地域240_buy_sell,"2,290万円",パレ東塚口１,尼崎市東塚口町1丁目3-20,塚口,福知山線,4分,２LDK,55.4m²,23年,1/1/96,平成8年1月,空家,相談,準工業地域241_buy_sell,"2,880万円（税込）",-,伊丹市御願塚6丁目35の西側,新伊丹,阪急伊丹線,7分,２SLDK,68.38m²,1年,6/1/18,平成30年6月,完成済,即時,第一種低層住居専用地域242_buy_sell,"3,080万円（税込）",伊丹南野北戸建,伊丹市南野北4丁目1-23-2,"塚口
野間東
新伊丹","阪急神戸線
バス
阪急伊丹線","10分
3分
23分",３LDK,96.88m²,2年,2/1/17,平成29年2月,空家,即（残金精算後）,1種中高層住居専用地域243_buy_sell,"1号棟：3,380万円（税込）
2号棟：3,180万円（税込）",Livele Garden. S 伊丹市西野7丁目,兵庫県伊丹市西野7丁目78,"伊丹
西野武庫川センター前","阪急伊丹線
バス","15分
4分",４LDK,"1号棟：105.16m²
2号棟：101.44m²",1年,6/1/18,6/1/18,建築中,2018年7月上旬予定,準工業地域244_buy_sell,"3,480万円（税込）",-,伊丹市中野東1丁目28番2　B号地,伊丹,阪急伊丹線,7分+4分,４LDK,101.43m²,0年,1/1/19,平成31年1月,-,-,第一種中高層住居専用地域245_buy_sell,"14,800,000円",パストラル昆陽　1211号室,兵庫県伊丹市池尻1丁目196,"伊丹
池尻南口","阪急伊丹線
阪神バス","15分
2分",３LDK,78.75m²,43年,5/1/76,昭和51年5月,空家,即日,第一種中高層住居専用地域246_buy_sell,3600万円,グランパレ武庫之荘,尼崎市武庫之荘1丁目29-10,武庫之荘,阪急神戸線,5分,３LDK,75.15m²,18年,6/1/01,平成13年6月,居住中,相談,第二種中高層247_buy_sell,"5,680万円（税込）",ディグリア武庫之荘二丁目,尼崎市武庫之荘2丁目,武庫之荘,阪急神戸線,5分,３LDK,94.02m²,11年,6/1/08,6/1/08,空家,即時,第1種中高層248_buy_sell,"2,380万円",ワコーレ立花ソフィール,兵庫県尼崎市大西町1丁目14-24,"立花
阪急塚口","東海道・山陽本線
阪急伊丹線","14分
23分",３LDK ,75.75m²,16年,3/1/03,平成15年3月,居住中,平成31年2月下旬頃,第2種中高層住居専用地域249_buy_sell,"2,580万円",ワコーレ立花ソフィール,兵庫県尼崎市大西町1丁目14-24,立花,JR神戸線,14分,４LDK,75.75m²,16年,3/1/03,H15年3月,居住中,相談,第二種中高層住専・準住居250_buy_sell,"1,780万円",ロイヤル立花,尼崎市立花町1丁目18-15,立花,東海道・山陽本線,4分,３DK,55.89m²,24年,3/1/95,1995（平成7年）年3月,空室,相談,第二種中高層住居専用地域・近隣商業地域251_buy_sell,"4,280万円",リブレカーサ武庫之荘,尼崎市武庫之荘2丁目8-8,武庫之荘,阪急神戸線,3分,３LDK,99.99m²,30年,4/1/89,平成元年4月,空室,即時,第2種中高層住居専用地域252_buy_sell,2280万円,パレ武庫之荘富松の杜,尼崎市富松町1丁目26-33,武庫之荘,阪急神戸線,12分,３LDK,68.71m²,19年,11/1/00,平成12年11月,空家,即時,一種中高層253_buy_sell,"3,980万円",ファンインフラッツ武庫之荘　101号,尼崎市武庫之荘本町三丁目7-28,武庫之荘,阪急神戸線,14分,４LDK,85.68m²,11年,8/1/08,平成20年8月,空家,即時,第1種中高層住居専用地域254_buy_sell,"2,980万円（税込）",塚口さんさんタウン二番館　10階1010号室,尼崎市南塚口町二丁目1番2号,塚口,阪急神戸線,1分,２LDK+N,87.68m²,41年,6/1/78,昭和53年6月,空室,相談,商業地域255_buy_sell,"3,180万円",キングマンション塚口,尼崎市塚口町1丁目24-11　202号室,塚口,阪急神戸線,8分,３LDK,72.62m²,24年,6/1/95,平成7年6月,空家,相談,第一種住居地域256_buy_sell,1280万円,武庫之荘パークハイツ,兵庫県尼崎市南武庫之荘3丁目,武庫之荘,阪急神戸線,4分,２LDK,49.28m²,41年,11/1/78,昭和53年11月,空家,即時,第一種中高層住居専用地域257_buy_sell,"2,680万円（税込）",ステイツ尼崎西難波ガーデンズ,尼崎市西難波町4丁目,"尼崎
出屋敷","阪神本線
阪神本線","13分
9分",３LDK,68.63m²,16年,2/1/03,2003（平成15）年2月,空,相談,第一種住居地域258_buy_sell,"1,180万円",ライオンズマンション園田北,兵庫県尼崎市食満3丁目5-25,"園田
園田公民館","阪急神戸線
バス","/
4分",２LDK,54.01m²,26年,9/1/93,平成5年9月,空室,即時,第二種住居専用地域259_buy_sell,1080万円,さんシティ武庫之荘本町203号,尼崎市武庫之荘本町3丁目17番23号,"武庫之荘
武庫東中学校","阪急神戸線
バス","7分
2分",３LDK ,58.32m²,34年,7/1/85,昭和60年7月,居住中,相談,第一種中高層住居専用地域260_buy_sell,"2,080万円",エーベル武庫之荘参番館,尼崎市富松町2丁目26-13,武庫之荘,阪急神戸線,18分,２SLDK,60.06m²,22年,5/1/97,平成9年5月,居住中,相談,第1種中高層住居専用地域261_buy_sell,1380万円,東園田セントポリア,兵庫県尼崎市東園田町8丁目94番8,園田,阪急神戸線,7分,３LDK,68.2m²,33年,12/1/86,昭和61年12月,空家,即時,第1種中高層住居専用地域262_buy_sell,"3,980万円",ローレルスクエア尼崎ルネ・ガーデンテラス,尼崎市潮江一丁目,尼崎,JR東海道本線,3分,３LDK,68.17m²,11年,5/1/08,平成20年5月,-,相談,商業地域263_buy_sell,"3,280万円",ラ・ヴィール武庫之荘,兵庫県尼崎市武庫之荘二丁目46-1,武庫之荘,阪急神戸線,6分,２SLDK,75.56m²,20年,11/1/99,平成11年11月,空家,相談,第1種中高層住居専用地域264_buy_sell,"4,980万円",尼崎D.C.グランスクエア　NORTH棟,尼崎市潮江5丁目2-1　1124号室,尼崎,東海道本線,5分,３LDK+N ,84.22m²,5年,6/1/14,平成26年6月,空室,相談,近隣商業地域265_buy_sell,"1,580万円",ダイアパレス尼崎,兵庫県尼崎市昭和通4丁目,尼崎,阪神本線,6分,２LDK,58.76m²,33年,6/1/86,昭和61年6月,空家,相談,商業地域266_buy_sell,"5,250万円",尼崎D.C.グランスクエア　NORTH棟,尼崎市潮江5丁目2-1　1124号室,尼崎,東海道本線,5分,３LDK+N ,84.22m²,5年,6/1/14,平成26年6月,空室,相談,近隣商業地域267_buy_sell,"3,090万円（税込）",オークヒルズ武庫之荘本町　105号室,尼崎市武庫之荘本町2-15-10,武庫之荘,阪急神戸線,16分,３LDK,74.82m²,14年,11/1/05,平成17年11月,空室,相談,-268_buy_sell,"1,480万円（税込）",パレ武庫元町,尼崎市武庫元町1丁目11-11,武庫之荘,阪急神戸線,8分+4分,２LDK,58.5m²,25年,5/1/94,平成6年5月,空家,即時,第2種住居地域269_buy_sell,"3,680万円",エーベル武庫之荘参番館武庫之荘北　7階,兵庫県尼崎市武庫之荘本町3丁目7-20,武庫之荘,阪急神戸線,14分,４LDK,86.9m²,15年,1/1/04,1/1/04,空家,相談,第1種中高層住居専用地域270_buy_sell,1280万円,ルネ武庫川２番館,尼崎市稲葉荘1丁目19番,甲子園口,JR東海道線,19分,３DK,56.00m²,33年,5/1/86,昭和61年5月,所有者居住中,相談（リフォーム完了後、お引渡し）,第1種中高層住居専用地域271_buy_sell,"1,598万円（税込）",園田ダイヤハイツ,尼崎市田能4丁目13-1,園田,阪急神戸線,4分,-,68.97m²,38年,12/1/81,昭和56年12月,空家,リフォーム完了後,第一種中高層住居専用地域272_buy_sell,"2,680万円",フェスタ立花　北館,尼崎市七松町1丁目,"立花
武庫之荘
尼崎センタープール前","JR神戸線
阪急神戸線
阪神本線","1分
25分
27分",３LDK,61.44m²,19年,5/1/00,5/1/00,空家,相談,近隣商業273_buy_sell,"1,580万円",レオロイヤル塚口駅前,尼崎市南塚口町1丁目４－２,塚口,阪急神戸線,4分,３LDK,60.41m²,37年,11/1/82,昭和57年11月,居住中,即時,準住居地域274_buy_sell,"4,599万円（税込）",尼崎D.C.パークフロント　104室,尼崎市潮江5-4-19,尼崎,JR神戸線,9分,4LDK,85.65m²,6年,1/1/13,平成25年1月,空室,相談,-275_buy_sell,"1,680万円（税込）",パレス南塚口町弐号棟　4階,兵庫県尼崎市尾浜町1丁目32番２,塚口,阪急神戸線,18分,３LDK ,67.20m²,39年,8/1/80,8/1/80,空家,相談,第1種住居地域276_buy_sell,"1,890万円",イトーピア武庫之荘　103号室,尼崎市武庫之荘3丁目,武庫之荘,阪急,7分,3LDK+S,97.84m²,48年,1/1/71,S46.2,空家,相談,-277_buy_sell,"2,380万円（税込）",ライフネ武庫之荘　1階102号室,兵庫県尼崎市武庫町1-28-12,武庫之荘,阪急神戸線,10分,３LDK,60.93m²,21年,9/1/98,平成10年9月,居住中,相談,商業地域278_buy_sell,"2,580万円",パレ尼崎マスターズプレイス,尼崎市西長洲町2丁目33-70,尼崎,阪神本線,9分,３LDｋ,70.79m²,16年,12/1/03,2003（平成15）年12月,居住中,相談,第一種住居地域279_buy_sell,"1,290万円",モンテベルデ北園田　412号室,兵庫県尼崎市田能5丁目,猪名寺,福知山線,15分,３LDK,69.85m²,28年,11/1/91,平成3年11月,空家,相談,-280_buy_sell,"1,890万円",クレオ武庫之荘本町,尼崎市武庫之荘本町三丁目39番地,武庫之荘,阪急神戸線,12分,３LDK,60.11m²,25年,7/1/94,平成6年7月,居住中,相談,第1種中高層住専281_buy_sell,"2,098万円",ハイム武庫川リヴィエール　3階302号室,尼崎市道意町6丁目3番地,尼崎センタープール,阪神本線,8分,３LDK ,70.28m²,20年,6/1/99,平成11年6月,所有者居住中,相談　2018年6月上旬,準住居282_buy_sell,"1,680万円（税込）",ハイツ塚口南,尼崎市尾浜町2丁目9-8-104,尼崎,JR東海道本線,21分,３LDK,73.47m²,35年,10/1/84,昭和59年10月,空家,即時,第1種住居地域283_buy_sell,"2,380万円",藤和はいタウン尼崎,尼崎市昭和通6丁目203番地1,尼崎,阪神本線,10分,３LDK,64.00m²,22年,2/1/97,平成9年2月,居住中,相談,商業284_buy_sell,"1,099万円（税込）",南塚口町パークマンション　B棟１　5階,兵庫県尼崎市尾浜町2丁目21-25,"尼崎
尾浜","東海道本線
バス","5分
2分",２DK,47.54m²,41年,2/1/78,2/1/78,空家,即時,第1種住居地域285_buy_sell,"1,850万円（税込）",武庫之荘スカイハイツ,尼崎市上ノ島町2丁目2-26,武庫之荘,阪急神戸線,10分,３LDK,73.72m²,39年,12/1/80,昭和55年12月,空家,相談,第1種中高層住居専用地域・286_buy_sell,"3,580万円",プレサンスロジェ武庫之荘,尼崎市武庫之荘1丁目27番1号,武庫之荘,阪急神戸線,4分,３LDK ,69.38m²,7年,2/1/12,2/1/12,空家,相談,第二種中高層住居専用地域287_buy_sell,"1,380万円",インペリアル南塚口ガーデンハウス,尼崎市名神町2丁目12-24,塚口,阪急神戸線,20分,２LDK ,67.57m²,37年,11/1/82,昭和57年11月,居住中,相談,準工業地域288_buy_sell,2480万円,セレブコート尼崎駅前,兵庫県尼崎市長洲本通1丁目12-8,尼崎,東海道本線,4分,２LDK+N,61.02m²,23年,1/1/96,1/1/96,空家,即時,工業地域289_buy_sell,"1,580万円（税込）",パレス南塚口　弐号棟303号室,兵庫県尼崎市尾浜町1丁目32-2,塚口,阪急神戸線,8分+3分,３LDK ,70.28m²,39年,8/1/80,昭和55年8月,空家,即可（残代金支払後）,第1種住居290_buy_sell,"2,480万円（税込）",グリーンコーポ園田,尼崎市若王寺1丁目25-1,園田,阪急神戸線,13分,３LDK ,68.64m²,23年,8/1/96,平成8年8月,空家,即時,第1種中高層住居専用地域・291_buy_sell,"2,480万円（税込）",グリーンコーポ園田,尼崎市若王寺1丁目25-1,園田,阪急神戸線,13分,３LDK ,68.64m²,23年,8/1/96,H8年8月,空家,相談,-292_buy_sell,"3,180万円",セレッソコート武庫之荘パークあヴぃにゅー,尼崎市上ノ島町1丁目15-30,武庫之荘,阪急神戸線,8分,４LDK ,81.41m²,17年,8/1/02,平成14年8月,居住中,要相談,第一種中高層住居専用地域293_buy_sell,"2,380万円",クレアーレ塚口　9階,兵庫県尼崎市上坂部1丁目,塚口,JR福知山線,7分,２LDK,64.68m²,20年,7/1/99,平成11年（1999年）7月,居住中,期日指定（2018年4月下旬以降）,第一種住居地域294_buy_sell,"2,280万円",アービング尼崎長洲公園,尼崎市長洲東通3丁目3-7,"杭瀬
尼崎","阪神本線
JR東海道本線","10分
15分",３LDK,63.37m²,19年,7/1/00,平成12年7月,所有者居住中,相談,準工業295_buy_sell,"1,680万円",グラン・ドムール尼崎,尼崎市神田南通一丁目9番地,尼崎,阪神本線,7分,２LDK,66.16m²,31年,3/1/88,昭和63年3月,空家,相談,第1種中高層住専296_buy_sell,"2,380万円",サンクレスト塚口,尼崎市南塚口町二丁目21番6号,"塚口
塚口","阪急神戸線
JR宝塚線","4分
8分",３LDK ,72.10m²,22年,10/1/97,平成9年10月,空家,即時　平成30年4月中旬,第1種住居地域297_buy_sell,"2,100万円",エスリード尼崎昭和通,尼崎市昭和南通8丁目216-2,出屋敷,阪神本線,8分,３LDK,63.63m²,12年,2/1/07,2007（平成19年）2月,居住中,相談,商業地域298_buy_sell,"2,930万円",リーデンススクエア塚口,兵庫県尼崎市塚口本町6丁目,"塚口
塚口
猪名寺","JR福知山線
阪急神戸線
JR福知山線","13分
14分
12分",３LDK ,81.05m²,16年,7/1/03,7/1/03,空室,相談,工業地域299_buy_sell,"3,899万円（税込）",ルネマスターズタワー,兵庫県尼崎市潮江1丁目5番１,尼崎,東海道本線,2分,３LDK,70.98m²,15年,9/1/04,9/1/04,空家,相談,近隣商業地域300_buy_sell,"1,280万円",下の森住宅,尼崎市南武庫之荘4丁目,"武庫之荘
立花","阪急神戸線
JR神戸線","10分
18分",３DK,64.70m²,46年,4/1/73,4/1/74,空家,相談,"第1種中高層
準住居地域"301_buy_sell,"2,980万円",塚口ネオコーポラス,兵庫県尼崎市塚口町1丁目,塚口,阪急神戸線,5分,３LDK,89.39m²,38年,2/1/81,昭和56年2月,空家,即時,第一種住居地域302_buy_sell,"4,080万円",尼崎グランスクエア　SOUTH　13階,兵庫県尼崎市潮江5丁目2番１,尼崎,東海道本線,5分,３LDK,76.32m²,5年,2/1/14,2/1/14,居住中,相談,近隣商業地域303_buy_sell,"1,480万円",ローレル武庫之荘,兵庫県尼崎市武庫豊町3丁目,"武庫之荘
武庫営業所","阪急神戸線
バス","9分
4分",３LDK,63.78m²,32年,3/1/87,3/1/87,居住中/自己利用中,相談,第一種住居地域304_buy_sell,"1,180万円",藤和ライブタウン立花,尼崎市東難波町1丁目5-40,立花,JR東海道本線,"8分
6分",３DK,54.79m²,32年,6/1/87,昭和62年6月,空家,相談,第1種住居地域305_buy_sell,"4,080万円",クレアーレ塚口町,尼崎市塚口町1丁目24-12,塚口,阪急神戸線,5分,３LDK,81.21m²,16年,3/1/03,平成15年3月,居住中,相談,第1種住居地域306_buy_sell,"1,680万円（税込）",藤和シティホームズ武庫之荘,尼崎市武庫元町1丁目１－１,武庫之荘,阪急神戸線,12分,３LDK,60.6m²,24年,5/1/95,平成7年5月,空家,即時,準住居地域307_buy_sell,"3,000万円",ゾンネンハイム芦屋,芦屋市東芦屋町,"芦屋
芦屋川
芦屋","JR神戸線
阪急神戸線
阪神本線","10分
9分
18分",３LDK,118.29m²,44年,2/1/75,2/1/75,空家,相談,第1種低層308_buy_sell,"2,480万円（税込）",芦屋バレスハイツ南館,兵庫県芦屋市平田町,"芦屋
深江
芦屋","阪神本線
阪神本線
JR神戸線","7分
17分
20分",3LDK,106.80m²,50年,3/1/69,3/1/69,空室,即時,第一種低層住居専用地域309_buy_sell,"5,980万円",ステイツクレスト芦屋業平　2階　202号室,芦屋業平町3-20,芦屋,JR線,2分,３LDK+N,83.74m²,17年,5/1/02,平成14年5月,空,-,商業地域310_buy_sell,"2,280万円（税込）",プリオーレ芦屋,兵庫県芦屋市南宮町,打出,阪神本線,5分,2SLDK,60.71m²,26年,11/1/93,11/1/94,空家,即時,近隣商業地域311_buy_sell,"1,580万円",芦屋市パレスハイツ,芦屋市平田町２－７,芦屋,阪神本線,7分,2LDK,69m²,50年,12/1/69,昭和44年12月,空家,相談,第1種低層住居専用地域312_buy_sell,"2,980万円",パーク・ハイム芦屋翠ケ丘町,兵庫県芦屋市翠ケ丘町,"芦屋
打出","JR東海道本線
阪神本線","16分
14分",2LDK,65.19m²,32年,3/1/87,3/1/87,空家,相談,第一種中高層住居専用地域313_buy_sell,"1,580万円（税込）",イスズハイツベル芦屋パートII,芦屋市南宮町7-26,打出,阪神本線,5分,３LDK,62.68m²,34年,12/1/85,昭和60年12月,空家,相談,第1種中高層住居専用地域314_buy_sell,"1,380万円",東山ハイツ　6階,兵庫県芦屋市東芦屋町,"芦屋川
芦屋","阪急神戸線
東海道本線","9分
10分",２LDK,62.9m²,52年,7/1/67,昭和42年（1967年）7月,居住中,相談,第一種低層住居専用地域315_buy_sell,"2,480万円（税込）",芦屋打出ビューハイツ410号室,兵庫県芦屋市若宮町4番8,"打出
芦屋","阪神本線
JR東海道本線","1分
14分",１LDK+WIC,67.10m²,40年,8/1/79,昭和54年8月,空家,即時,-316_buy_sell,"2,280万円",万葉ハイツ芦屋川,芦屋市山手町24-12,芦屋川,阪急神戸線,12分,３LDK,78.00m²,40年,9/1/79,S54年9月,空家,即時,1種低層317_buy_sell,"3,480万円（税込）",芦屋春日コーポラス　８棟　４０４号室,兵庫県芦屋市春日町１４番１２,"打出
芦屋","阪神本線
JR東海道本線","7分
15分",３SLDK,97.23m²,39年,2/1/80,昭和55年2月,空家,即可（残代金精算後）,第一種住居318_buy_sell,"2,280万円",パークナード潮芦屋　２０８号室,芦屋市涼風町,"芦屋
涼風町東停","阪神本線
バス","10分
2分",３LDK,70.80m²,5年,2/1/14,H26年2月,空室,即時,第1種住居地域319_buy_sell,"3,180万円",芦屋サニーヒル,芦屋市朝日ヶ丘町,"芦屋
朝日ヶ丘北公園","JR神戸線
バス","11分
1分",３LDK,75.55m²,22年,12/1/97,平成9年12月,空,即時,第一種中高層住居専用地域320_buy_sell,"3,480万円",芦屋サンプラザ,芦屋市平田町５－８,芦屋,阪神本線,9分,５LDK ,152.28m²,50年,9/1/69,昭和44年9月,居住中,相談,第1種低層321_buy_sell,"7,980万円",シティハウス芦屋大原町,兵庫県芦屋市大原町５番２４-３０５号,芦屋,JR神戸線,2分,２LDK ,80.87m²,14年,12/1/05,平成17年12月,空家,相談,近隣商業地域・第2種中高層住居専用地域322_buy_sell,"3,380万円",パーク・ハイム芦屋津知町,兵庫県芦屋市津知町１１-１２,"芦屋
甲南山手","阪神本線
東海道本線","9分
11分",３LDK,75.58m²,24年,6/1/95,1995年6月（平成7年6月）,空室,相談,第一種中高層住居専用地域323_buy_sell,"3,700万円",エスリード芦屋陽光町　１０階,芦屋市陽光町８-２０,"芦屋
浜風大橋南","阪神本線
バス","13分
1分",４LDK ,100.69m²,10年,2/1/09,平成21年2月,所有者居住中,相談,第二種住居地域324_buy_sell,"2,580万円",芦屋浜町アーバンプラザ,芦屋市浜町１４番２号,"打出
芦屋","阪神本線
JR東海道本線","11分
20分",３LDK,97.70m²,29年,11/1/90,平成2年11月,空き室,相談,第1種中高層325_buy_sell,"3,180万円（税込）",芦屋パークマンションA棟,芦屋市東山町７-１２,"芦屋
芦屋川","JR神戸線
阪急神戸線","10分
11分",２LDK+WIC,73.44m²,46年,2/1/73,1973年（昭和48年）2月,空家,即時,第一種中高層住居専用地域326_buy_sell,"1,580万円",アステム芦屋D棟　６３２号室,兵庫県芦屋市高浜町３-１,"芦屋
芦屋","阪神本線
JR東海道本線","18分
22分",３LDK+WIC ,80.74m²,40年,7/1/79,昭和54年7月,空家,即時,第一種住居地域327_buy_sell,"2,850万円",ティコット芦屋,芦屋市茶屋之町８-２１,芦屋,JR東海道本線,5分,１LDK,44.93m²,22年,8/1/97,平成9年8月,空家,即時,第2種中高層住居専用地域328_buy_sell,"2,650万円",レスタージュ芦屋　北棟,兵庫県芦屋市朝日ヶ丘町４-１３,"芦屋
東山町","東海道本線
バス","8分
2分",３LDK,76.2m²,18年,2001年,平成13年,空家,即時,第一種中高層住居専用地域329_buy_sell,"3,290万円（税込）",ブランズ芦屋パークフロント　２階　207号室,芦屋市朝日ヶ丘町10番31,"芦屋
朝日ヶ丘","JR神戸線
バス","/
3分",３LDK,76.7m²,8年,2/1/11,平成２３年2月,空家,相談,第一種中高層住居専用地域330_buy_sell,"1,180万円",朝日ヶ丘レックスマンション1号棟,芦屋市朝日ヶ丘町7-15,"芦屋
芦屋市民プール前","東海道本線
バス","/
3分",２LDK,69.30m²,46年,5/1/73,1973（昭和48）年5月,空,相談,第一種中高層住居専用地域331_buy_sell,"3,160万円（税込）",洋伸芦屋楠町マンション406号室,芦屋市楠町14-20,"打出
芦屋","阪神本線
JR東海道本線","7分
15分",-,74.24m²,36年,3/1/83,昭和58年3月,空室,即時,-332_buy_sell,"3,180万円",洋伸芦屋楠町マンション,芦屋市楠町,"芦屋
打出","JR神戸線
阪神本線","15分
7分",３LDK,85.41m²,36年,3/1/83,3/1/83,空家,即時,第1種中高層333_buy_sell,"2,780万円",洋伸芦屋楠町マンション,芦屋市楠町,"芦屋
打出","JR神戸線
阪神本線","15分
7分",４LDK ,85.41m²,36年,3/1/83,3/1/83,空家,即時,第1種中高層334_buy_sell,"2,780万円",洋伸芦屋楠町マンション,芦屋市楠町,"芦屋
打出","JR神戸線
阪神本線","15分
7分",４LDK ,85.41m²,36年,3/1/83,3/1/83,空家,即時,第1種中高層335_buy_sell,"3,080万円",洋伸芦屋楠町マンション,芦屋市楠町,"芦屋
打出","JR神戸線
阪神本線","15分
7分",４LDK ,85.41m²,36年,3/1/83,3/1/83,空家,即時,第1種中高層336_buy_sell,"2,980万円",ワコーレ芦屋市呉川町,兵庫県芦屋市呉川町17-9　303,芦屋,東海道本線,17分,２LDK ,72.1m²,14年,9/1/05,平成17年9月,空家,即時,第二種中高層住居専用地域337_buy_sell,"1,389万円",アステム芦屋　A棟,兵庫県芦屋市若葉町,芦屋,阪神本線,1分,３SLDK,75.06m²,40年,2/1/79,昭和54年2月,空家,即時,第一種住居地域338_buy_sell,"3,880万円",ファミール・グラン芦屋,芦屋市伊勢町,"芦屋
芦屋
打出","阪神本線
JR神戸線
阪神本線","12分
19分
22分",3LDK,108.75m²,27年,11/1/92,11/1/92,空家,即時,第1種中高層339_buy_sell,"1,230万円",シャンボール芦屋　３０６,兵庫県芦屋市東山町27-9,"芦屋
打出","東海道・山陽本線
阪神本線","18分
22分",３LDK,57.34m²,41年,1/1/78,1/1/78,空家,即時,第一種中高層住居専用地域340_buy_sell,"3,780万円（税込）",エスリード芦屋陽光町,芦屋市陽光町8番20,芦屋,阪神本線,10分（バス）,４LDK,100.69m²,10年,2/1/09,平成21年2月,空家,-,-341_buy_sell,"1,150万円",芦屋打出アーバンライフ,兵庫県芦屋市南宮町1-13,打出,阪神本線,3分,２LDK,60.31m²,37年,3/1/82,昭和57年3月,居住中,相談,近隣商業地域342_buy_sell,"1,650万円",朝日ヶ丘アーバンライフ弐番館,芦屋市朝日ヶ丘町9-8,"芦屋
朝日ヶ丘町","JR神戸線
バス","8分
1分",３LDK,80.26m²,35年,3/1/84,昭和59年3月,空室,即時,第一種中高層住居専用地域343_buy_sell,"1,770万円",芦屋パインリッチ,兵庫県芦屋市朝日ヶ丘町1-27,芦屋,JR東海道・山陽本線,18分,３LDK,85.81m²,46年,8/1/73,8/1/73,空室,即日,第2種住居地域344_buy_sell,"1,390万円",朝日ヶ丘レックスマンション1号棟,兵庫県芦屋市朝日ヶ丘町7-15　722,"芦屋
芦屋市民プール前","東海道本線
バス","10分
3分",２LDK,64.12m²,46年,5/1/73,昭和48年5月,所有者居住中,相談,第一種中高層住居専用地域345_buy_sell,"1,280万円",山芦屋ヴォ-ン,芦屋市東芦屋町20-29,"芦屋川
芦屋","阪急神戸線
東海道本線","11分
15分",２LDK,63.60m²,51年,2/1/68,1968（昭和43）年2月,-,9月中旬以降,第一種低層住居専用地域346_buy_sell,"1,990万円（税込）",コープ芦屋　305号室,芦屋市浜芦屋町3-15,芦屋,阪神本線,5分,３LDK ,76.90m²,51年,5/1/68,昭和43年5月,空室,相談,-347_buy_sell,"3,950万円",ステイつグラン芦屋,兵庫県芦屋市楠町13-32,"芦屋
打出","東海道・山陽本線
阪神本線","13分
7分",３LDK,74.19m²,14年,1/1/05,平成17年1月,空,即時,第一種中高層住居専用地域348_buy_sell,"3,280万円",レスタージュ芦屋北棟,芦屋市朝日ヶ丘町4番13号,"芦屋
東山町","JR神戸線
バス","12分
3分",３LDK,81.30m²,18年,5/1/01,平成13年5月,居住中,相談,第1種中高層住専349_buy_sell,"1,380万円",朝日ヶ丘アーバンライフ,芦屋市朝日ヶ丘町10-35,"芦屋
/","JR東海道本線
バス","12分
3分",３LDK,77.67m²,40年,1/1/79,昭和54年11月,居住中,相談,第1種中高層住居専用地域・350_buy_sell,"2,380万円",ロイヤルヒル芦屋,兵庫県芦屋市朝日ヶ丘町,"芦屋
朝日ヶ丘停","JR東海道線
バス","9分
2分",３SLDK,109.33m²,38年,11/1/81,1981年（昭和56年）11月,空,相談,1種中高351_buy_sell,"1,390万円",精道スカイハイツ,芦屋市精道町3-21,芦屋,阪神本線,4分,３LDK,68.75m²,45年,10/1/74,S49年10月,居住中,相談,1種中高層住居専用地域352_buy_sell,"2,680万ン",シャトー芦屋　７１０号室,兵庫県芦屋市朝日ヶ丘町１９-６　710,"芦屋
芦屋病院西口","東海道本線
バス","25分
11分+1分",3LDK,86.33m²,20年,8/1/99,平成11年8月,空家,即時,第一種中高層住居専用地域353_buy_sell,"3,180万円（税込）",パー・クハイム芦屋緑ヶ丘,芦屋市緑ヶ丘町16,"芦屋
打出","JR神戸線
阪神本線","16分
14分",２LDK,74.22m²,32年,2/1/87,昭和62年2月,空家,相談,第一種中高層住居専用地域354_buy_sell,"1,800万円",芦屋松浜ハイツ,兵庫県芦屋市松浜町5-15　309,芦屋,阪神本線,9分,３LDK ,114.5m²,50年,2/1/69,昭和44年2月,空家,-,-355_buy_sell,"5,650万円",ビューコート朝日ヶ丘,芦屋市朝日ヶ丘町38番5号,"芦屋
芦屋病院西口","JR神戸線
バス","10分
2分",５LDK ,231.80m²,37年,6/1/82,昭和57年6月,居住中,相談,第1種低層住専356_buy_sell,"2,480万円（税込）",パーク・ハイム芦屋呉川町,兵庫県芦屋市呉川町17-19,芦屋,阪神本線,15分,３LDK,78.16m²,31年,3/1/88,昭和63年3月,リフォーム工事中,H30年1月以降,第一種中高層住居専用地域357_buy_sell,"4,980万円（税込）",ステイつグラン芦屋　2階,兵庫県芦屋市楠町,"芦屋
打出","JR東海道本線
阪神本線","14分
8分",3LDK+N,85.36m²,14年,1/1/05,平成17年（2005年）1月,空家,即可（但し、残代金支払い後）,第一種中高層住居専用地域358_buy_sell,"2,240万円（税込）",ロイヤルヒル芦屋,芦屋市朝日ヶ丘町4-30,"芦屋-朝日ヶ丘町
芦屋川-朝日ヶ丘町","JR神戸線-バス
阪急神戸線-バス","9分+3分
13分3分",２SLDK,93.79m²,38年,11/1/81,昭和56年11月,空室,即時,第一種中高層住居専用地域359_buy_sell,"1,480万円（税込）",芦屋パインリッチ　6階,芦屋市朝日ヶ丘町1-27,芦屋,JR東海道本線,19分,２LDK,68.17m²,46年,8/1/73,昭和48年8月,空家,即,第一種中高層住居専用地域360_buy_sell,"3,280万円",セレッソコート芦屋竹園,兵庫県芦屋市竹園町1-22,芦屋,東海道本線,10分,３LDK,80.58m²,11年,10/1/08,平成20年10月,所有者居住中,予定<2018年3月下旬>,第一種住居地域361_buy_sell,3780万円,ラリーブ　（5階　506号室）,芦屋市松ノ内町1-10,芦屋,JR線,4分,３LDK,80.51m²,30年,3/1/89,平成1年3月,空室,即可,近隣商業地域362_buy_sell,"3,090万円（税込）",ラ・ヴィール芦屋川　6号棟　403号室,芦屋市新浜町2-6,打出,阪神本線,17分,３LDK ,81.92m²,21年,3/1/98,平成10年3月,空室,相談,-363_buy_sell,"1,320万円",芦屋山ノ手アーバンライフアネックス,芦屋市東芦屋町23-18,"芦屋
芦屋市民プール前","東海道本線
バス","8分
2分",２LDK,69.04m²,45年,9/1/74,1974（昭和49）年9月,居住中,相談,第一種低層住居専用地域364_buy_sell,"2,980万円",芦屋山ノ手アーバンライフアネックス,芦屋市東芦屋町23-18,"芦屋
芦屋市民プール前","JR神戸線
バス","/
2分",４LDK+2S,138.34m²,45年,9/1/74,S49年9月,空家,即時,1種低層365_buy_sell,"2,580万円",芦屋グランドハイツ　5階,芦屋市山手町14-8,芦屋川,阪急神戸線,10分,２LDK,112.54m²,53年,5/1/66,昭和41年5月,空家,相談,第一種中高層住居専用地域366_buy_sell,"1,750万円",芦屋ロイヤルハイツ,芦屋市岩園町10-16,"芦屋
夙川","東海道本線
阪急神戸線","15分
19分",２LDK,78.90m²,51年,11/1/68,1968（昭和43）年11月,空,相談,第一種低層住居専用地域367_buy_sell,"2,580万円",藤和シティホームズ芦屋弐番館,芦屋市津知町13-9,"芦屋
甲南山手","阪神本線
東海道本線","9分
11分",３LDK,74.78m²,25年,6/1/94,1994（平成6）年6月,居住中,相談,第一種中高層住居専用地域368_buy_sell,"3,690万円",ロイヤルヴィーゼ芦屋ヒルズコート,芦屋市南宮町147番地16,打出,阪神本線,8分,３LDK,80.17m²,17年,2/1/02,平成14年2月,空家,相談,第1種中高層住専369_buy_sell,"2,400万円",芦屋パークマンションB棟,芦屋市東山町9-17,"芦屋
芦屋川","JR神戸線
阪急神戸線","10分
11分",３LDK,84.24m²,46年,2/1/73,昭和48年2月,空室,相談,第1種中高層住居専用地域370_buy_sell,"2,980万円",レピア六甲,兵庫県神戸市灘区鶴甲3丁目１２－２６,"六甲-六甲台北
六甲","阪急神戸線-バス
阪急神戸線","10分+2分
23分",２LDK,71.97m²,14年,11/1/05,平成17年11月,居住中,相談,第一種中高層住居専用地域371_buy_sell,"2,180万円",ヴィルビュ六甲山手,神戸市灘区鶴甲2丁目7-1,六甲-鶴甲南,阪急神戸線,2分,３LDK ,77.57m²,19年,9/1/00,2000年（平成12年）9月,空家,相談,第一種中高層住居専用地域372_buy_sell,"2,280万円",ジオ六甲山手,神戸市灘区篠原台5番1,六甲-六甲台北,阪急神戸線-バス,８分+５分,４LDK ,89.13m²,23年,3/1/96,1996年（平成8年）3月,空家,相談,第一種低層住宅専用地域373_buy_sell,"1,980万円",-,神戸市灘区深田町3丁目2-17,"六甲道
新在家","JR東海道本線
阪神本線","2分
7分",２LDK,52.33m²,39年,4/1/80,昭和55年4月,空室,-,近隣商業地域374_buy_sell,"1,949万円（税込）",カサベルデ六甲,神戸市灘区鶴甲3－13－15,六甲-六甲北口,阪急神戸線-バス,8分+4分,３LDK ,82.10m²,36年,11/1/83,昭和58年11月,空室,相談,-375_buy_sell,1580万円,プラザ高羽,神戸市灘区寺口町11番7,六甲,阪急神戸線,12分,３LDK ,72.67m²,38年,8/1/81,昭和56年8月,空室,相談,第1種低層376_buy_sell,"2,780万円",コムーネ六甲　3階301号室,神戸市灘区篠原本町1丁目2番4,"六甲
六甲道","阪急本線
JR神戸線","4分
12分",２LDK ,66.06m²,36年,6/1/83,昭和58年6月,居住中,契約から3ヵ月後決済予定,第1種住居地域377_buy_sell,"3,180万円",ジークレフ六甲の丘D棟,兵庫県神戸市灘区篠原伯母野山町2丁目3-1,"六甲
六甲-篠原北町3","阪急神戸線
阪急神戸線-バス","12分
8分+5分",４LDK ,120.39m²,20年,2/1/99,平成11年2月,空,相談,第一種中高層住居専用地域378_buy_sell,"2,780万円",リビオ六甲高羽ガーデンスクエア,兵庫県神戸市灘区高羽字瀧ノ奥 5-3　405,六甲-神大国際文化学部前,阪急神戸線-バス,5分+480m,３LDK,75.12m²,10年,1/1/09,平成21年1月,空家,相談,-379_buy_sell,"2,580万円",藤和六甲桜ヶ丘ホームズ,神戸市灘区桜ヶ丘町11-24,六甲,阪急神戸線,14分,３LDK ,70.82m²,21年,3/1/98,平成10年3月,居住中,相談,第一種中高層住居専用地域380_buy_sell,"2,680万円",ファミール王子公園,神戸市灘区城内通1丁目4-14,王子公園,阪急神戸線,3分,３LDK ,62.49m²,20年,8/1/99,平成11年8月,居住中,相談,第一種住居地域381_buy_sell,4780万円,ドルフ灘ヴィールデュラン,神戸市灘区都通1丁目1番―24号,"摩耶
大石","JR東海道本線
阪神本線","8分
5分",４LDK ,90.97m²,11年,2008年,平成20年,空,即時,準工業地域382_buy_sell,"1,990万円",カサベルデ六甲,神戸市灘区鶴甲3丁目,"六甲-昭生病院前
六甲-六甲台北","阪急神戸線-バス
阪急神戸線-バス","13分+1分
8分+4分",３LDK,82.10m²,36年,11/1/83,1983（昭和58）年11月,空,相談,第一種中高層住居専用地域383_buy_sell,"3,450万円",ワコーレアーバンアベニュー灘1302号,神戸市灘区城内通5丁目5番23号,灘,JR東海道本線,1分,3LDｋ,69.63m²,18年,2/1/01,H13年2月,所有者居住中,相談,近商384_buy_sell,1480万円,第2サン六甲道ハイツ,神戸市灘区深田町3丁目3番4号,六甲道,JR,2分,１LDK,53.65m²,40年,1/1/79,昭和54年1月,空室,相談,商業地域385_buy_sell,"4,650万円",ワコーレ六甲道オービット－１　2階,兵庫県神戸市灘区桜口町1丁目１－１８,六甲道,東海道本線,6分,２LDK+S ,75.15m²,12年,1/1/07,1/1/07,居住中,期日指定（2019年4月上旬）,近隣商業地域386_buy_sell,"2,730万円",リビオ六甲高羽ガーデンスクエア,兵庫県神戸市灘区高羽字瀧ノ奥 ,"六甲-神大国際文化学部前
六甲道-神大国際文化学部前
六甲道-専用シャトルバス
六甲-専用シャトルバス","阪急神戸線-バス
JR神戸線-バス
JR神戸線-専用シャトルバス
阪急神戸線-専用シャトルバス","5分+5分
12分+5分
8分
15分",３LDK,66.37m²,10年,1/1/09,1/1/09,空家,即時,第1種中高層387_buy_sell,"2,980万円",コート六甲鶴甲,兵庫県神戸市灘区鶴甲1丁目５－３,"六甲-鶴甲南
六甲
御影","阪急神戸線-バス
阪急神戸線
阪急神戸線","6分+5分
24分
27分",４LDK,92.59m²,22年,3/1/97,平成9年3月,居住中,相談,第一種中高層住居専用地域388_buy_sell,"1,580万円",ライオンズマンション六甲友田町　8階,兵庫県神戸市灘区友田町3丁目5-8,六甲道,東海道本線,7分,１DK,33.77m²,22年,7/1/97,7/1/97,空家,相談,第1種住居地域・商業地域389_buy_sell,"2,080万円",六甲桜丘ハイツ,神戸市灘区桜ヶ丘町3番18,六甲,阪急神戸線,12分,３LDK+WIC ,66.00m²,22年,11/1/97,平成9年11月,空室,相談,第1種中高層住専390_buy_sell,"4,480万円（税込）",レピア六甲　404号室,神戸市灘区鶴甲3-12-26,六甲-六甲台北,阪急神戸線-バス,10分+2分,４LDK ,100.14m²,14年,11/1/05,平成17年11月,空室,即可（残代金精算後）,第1種中高層住居専用地域・第１種住居地域391_buy_sell,"3,199万円（税込）",ワコーレ六甲渓桜館　４０３号室,神戸市灘区篠原南町５-５-１８,"六甲
六甲道","阪急神戸線
JR神戸線","９分
１５分",２LDK,58.48m²,15年,2/1/04,平成１６年２月,空室,相談,-392_buy_sell,"3,780万円（税込）",グランパラッシオ六甲高尾通　３階,兵庫県神戸市灘区高尾通１丁目３番１８号,六甲-五毛,阪急神戸線-バス,９分+４分,４LDK ,92.00m²,19年,3/1/00,3/1/00,空家,即時,第１種低層住居専用地域393_buy_sell,"3,480万円",パルメーラ六甲,神戸市灘区森後町2丁目3-13,"六甲道
六甲","JR東海道本線
阪急神戸線","3分
6分",２SLDK,63.82m²,21年,12/1/98,平成10年12月,居住中,相談,商業地域394_buy_sell,"1,590万円（税込）",グレース六甲台　301号室,神戸市灘区六甲台町4-30,六甲-神大本部工学部前,阪急神戸線-バス,4分+1分,３SLDK,77.64m²,37年,12/1/82,昭和57年12月,空室,相談,-395_buy_sell,"2,080万円",サンヴィラ六甲パートll,神戸市灘区六甲台町５番７号,六甲,阪急神戸線,１４分,３LDK,72.11m²,36年,11/1/83,昭和５８年１１月,空室,相談,第一種中高層住居専用地域396_buy_sell,"4,180万円（税込）",藤和シティホームズ灘,神戸市灘区岩谷北町７丁目,"灘
岩屋
王子公園","JR神戸線
阪神本線
阪急神戸線","１分
３分
９分",３LDK,75.00m²,26年,3/1/93,3/1/93,空家,即時,近隣商業397_buy_sell,"1,980万円（税込）",ピュールエクセランス六甲,神戸市灘区篠原台２番地１０,六甲-炭山橋,阪急神戸線-バス,８分+3分,３LDK ,107.27m²,29年,2/1/90,平成2年2月,空家,相談,第1種低層住居専用地域398_buy_sell,"2,080万円（税込）",ワコーレ六甲レガーロ　4階４０２号室,神戸市灘区友田町4丁目1-3,"新在家
六甲道","阪神本線
JR神戸線","1分
7分",１DK ,42.33m²,15年,1/1/04,1/1/04,空家,相談,近隣商業・商業地域399_buy_sell,"1,680万円",日商岩井西灘マンション,神戸市灘区船寺通4丁目5-12,西灘,阪神本線,3分,３LDK ,61.60m²,40年,3/1/79,昭和54年3月,空家,即可,近隣商業地域・第一種住居地域400_buy_sell,"2,380万円（税込）",ドルミ灘,神戸市灘区大石東町１丁目,"新在家
六甲道","阪神本線
JR神戸線","４分
９分",３LDK,70.40m²,40年,5/1/79,5/1/79,空家,相談,"準住居地域
第1種住居"401_buy_sell,"4,250万円",ザ・パークハウス六甲篠原,神戸市灘区篠原南町6丁目,"六甲
六甲道","阪急神戸線
JR神戸線","11分
17分",３LDK+S,70.32m²,5年,2/1/14,2/1/14,居住中,相談,第1種住居402_buy_sell,"2,290万円（税込）",パラツィーナセシリア御影　804号室,神戸市灘区記田町1-4-11,"石屋川
六甲道","阪神本線
JR東海道本線","3分
15分",２LDK,56.52m²,35年,10/1/84,昭和59年10月,空室,相談,-403_buy_sell,"2,980万円",コート六甲鶴甲,神戸市灘区鶴甲1丁目５－３,六甲,阪急神戸線-バス,5分+2分,４LDK,92.59m²,22年,3/1/97,平成9年3月,居住中,相談,第1種中高層住居専用地域404_buy_sell,"3,780万円（税込）",コート六甲鶴甲,神戸市灘区鶴甲1丁目５－３,六甲-鶴甲南,阪急神戸線-バス,6分+2分,４LDK,93.69m²,22年,3/1/97,平成9年3月,空家,相談,第1種中高層住専405_buy_sell,"3,180万円（税込）",ローレルコート六甲篠原　4階,神戸市灘区篠原南町7丁目6-1,王子公園,阪急神戸線,10分,３LDK,71.99m²,22年,9/1/97,平成9年9月,空家,相談,第1種住居地域406_buy_sell,"3,580万円（税込）",ワコーレアーバンアベニュー灘　7階　702号室,神戸市灘区城内通五丁目5番23号,灘,JR線,2分,３LDK,69.63m²,8年,2/1/01,平成13年2月,空家,即時,近商407_buy_sell,"3,200万円",プリンスコート六甲,神戸市灘区篠原南町2丁目,"六甲
六甲道","阪急神戸線
JR神戸線","6分
12分",２LDK+S,69.52m²,20年,1/1/99,1/1/99,居住中,相談,第1種中高層408_buy_sell,"1,380万円",ジークレフ高羽二番館,兵庫県神戸市灘区土山町8-35,"御影
六甲
六甲道","阪急神戸線
阪急神戸線
東海道・山陽本線","17分
24分
27分",３LDK,79.87m²,30年,3/1/89,平成1年3月,空,相談,第一種中高層住居専用地域409_buy_sell,"1,580万円（税込）",甲南メゾン六甲　2階202号室,神戸市灘区高徳町１丁目２番１６,"六甲道
六甲","JR神戸線
阪急神戸線","１１分
１４分",４DK,54.90m²,35年,2/1/84,昭和５９年２月,居住中,期日指定（平成３０年３月初旬以降、相談）,第１種住居専用地域410_buy_sell,"6,780万円",ワコーレ神戸灘タワー　３１階,兵庫県神戸市灘区灘北通10丁目2-3,灘,東海道本線,1分,３LDK+S,113.51m²,13年,11/1/06,11/1/06,居住中,相談,近隣商業地域411_buy_sell,"3,180万円",ワコーレベイフロント摩耶　11階,兵庫県神戸市灘区船橋通4丁目4番7,摩耶,東海道本線,3分,３LDK,62.07m²,20年,8/1/99,8/1/99,居住中,相談,近隣商業地域412_buy_sell,"1,450万円",カサベルデ六甲　2階,兵庫県神戸市灘区鶴甲3丁目13番15,六甲-六甲台北,阪急神戸線-バス,8分+4分,２SLDK,85.10m²,36年,11/1/83,11/1/83,空家,相談,1種中高層413_buy_sell,"2,330万円",ワコーレ六甲レガーロ,神戸市灘区友田町4丁目,"新在家
六甲道","阪神本線
JR神戸線","1分
7分",１DK ,42.33m²,15年,1/1/04,1/1/04,空家,相談,"近隣商業
商業"414_buy_sell,"3,380万円（税込）",グレイスビュー六甲山手　6階604号室,神戸市灘区桜ヶ丘町15番65,六甲,阪急神戸線,17分,３LDK,95.56m²,11年,9/1/08,平成20年9月,空家,即,第1種中高層住居専用地域415_buy_sell,2100万円,六甲桜丘ハイツ（211号）,兵庫県神戸市灘区桜ヶ丘町3-18,六甲,阪急神戸線,12分,２SLDK,66m²,22年,12/1/97,平成9年12月,空室（リフォーム中）,相談,第1種中高層住居専用地域416_buy_sell,"1,980万円（税込）",パレス東灘,神戸市灘区本庄町3丁目4-3,"甲南山手
深江","JR神戸線
阪神本線","10分
5分",２LDK,55.00 m²,40年,2/1/79,昭和54年2月,空家,相談,第一種住居地域417_buy_sell,"3,080万円",リベールファインみかげ　3階,神戸市灘区中郷町１丁目２-３５,六甲,JR神戸線,１４分,３LDK,65.08m²,23年,3/1/96,平成８年３月,空家,相談,第一種中高層住居専用地域418_buy_sell,"1,250万円（税込）",六甲台ハウス二号棟　５階　５０６号室,神戸市灘区鶴甲２丁目１１番,六甲-神大発達科学部前,阪急神戸線-バス,１２分+２分,４DK,68.62m²,47年,11/1/72,昭和４７年１１月,空家,即,第一種中高層住居専用地域419_buy_sell,"3,480万円（税込）",センチュリータウン光が丘,宝塚市光が丘1丁目8-55,逆瀬川-宝松苑,阪急-バス,10分+4分,４LDK,96.39m²,2年,12/1/17,12/1/17,完成,即可,第1種低層住居専用地域420_buy_sell,"1,420万円",-,宝塚市月見山1種丁目12番2号,宝塚,阪急＆JR宝塚線,13分,５DK,112.59m²,36年,4/1/83,昭和58年4月,空家,相談,第1種低層住専421_buy_sell,"5,180万円",-,宝塚市川面三丁目9番17-1号,"宝塚
清荒神","JR・阪急
阪急","9分
8分",４LDK,108.75m²,2年,8/1/17,8/24/17,完成済み,相談,第1種中高層住居専用地域422_buy_sell,"4,930万円",-,宝塚市川面三丁目9番16-2号,"宝塚
清荒神","JR・阪急
阪急","9分
8分",３LDK+S,107.78m²,2年,8/1/17,8/24/17,完成済み,相談,第1種中高層住居専用地域423_buy_sell,"4,780万円",-,宝塚市川面三丁目9番１７-５号,"宝塚
清荒神","JR・阪急
阪急","9分
8分",３（４）LDK ,107.45m²,2年,8/1/17,8/24/17,完成済み,相談,第1種中高層住居専用地域424_buy_sell,"4,680万円",-,宝塚市川面三丁目9番１６-７号,"宝塚
清荒神","JR・阪急
阪急","9分
8分",４LDK,103.50m²,2年,8/1/17,8/24/17,完成済み,相談,第1種中高層住居専用地域425_buy_sell,"4,630万円",-,宝塚市川面三丁目9番１６-６号,"宝塚
清荒神","JR・阪急
阪急","9分
8分",３（４）LDK ,103.50m²,2年,8/1/17,8/24/17,完成済み,相談,第1種中高層住居専用地域426_buy_sell,"5,130万円",-,宝塚市川面三丁目9番１６-４号,"宝塚
清荒神","JR・阪急
阪急","9分
8分",４LDK,111.60m²,2年,8/1/17,8/24/17,完成済み,相談,第1種中高層住居専用地域427_buy_sell,"4,880万円",-,宝塚市川面三丁目9番１６-3号,"宝塚
清荒神","JR・阪急
阪急","9分
8分",４LDK,113.00m²,2年,8/1/17,8/24/17,完成済み,相談,第1種中高層住居専用地域428_buy_sell,"5,130万円",-,宝塚市川面三丁目9番１６-1号,"宝塚
清荒神","JR・阪急
阪急","9分
8分",４LDK,111.35m²,2年,8/1/17,8/24/17,完成済み,相談,第1種中高層住居専用地域429_buy_sell,2780万円（税込）,-,宝塚市末成町１８番１号,小林,阪急今津線,１２分,４LDK,86.26m²,1年,2/1/18,平成３０年２月末完成予定,建築中,相談,第一種中高層住居専用地域430_buy_sell,"2,580万円（税込）",鹿塩Project,宝塚市鹿塩2丁目6番23号,仁川,阪急今津線,9分,-,82.75m²,-,-,新築,完成,即時,第1種中高層住居専用地域431_buy_sell,"4,950万円",中州一丁目戸建,宝塚市中州1丁目2-10,逆瀬川,阪急今津線,4分,３LDK+S ,156.55m²,22年,1997年,平成9年,空家,ご相談,近隣商業地域432_buy_sell,"5,500万円（税込）",宝塚市仁川高台1丁目新築戸建,宝塚市仁川高台1丁目5-45の東側,仁川,阪急今津線,8分,４SLDK,116.92m²,1年,1/1/18,平成30年1月,完成済,相談,第1種低層住居専用地域433_buy_sell,"4,480万円",宝塚市御殿山3丁目　戸建,兵庫県宝塚市御殿山3兆名12-17,宝塚,JR福知山線,10分,４LDK,105.45m²,8年,1/1/11,平成23年1月,所有者居住中,相談,1低434_buy_sell,"4,800万円",宝塚市寿楽荘　中古戸建,兵庫県宝塚市寿楽荘17-29,"宝塚南口
逆瀬川
宝塚","阪急今津線
阪急今津線
福知山線","11分
13分
16分",５LDK+S,162.17m²,39年,11/1/80,昭和55年11月,空家,相談,第一種低層住居専用地域435_buy_sell,"3,980万円",仁川北1丁目　一戸建て,宝塚市仁川北1兆名１－６,仁川,阪急今津線,10分,３LDK,81.84m²,23年,1/1/96,H.8.1築,空家,即可,第一種中高層住居専用地域436_buy_sell,"4,480万円",アベニュー逆瀬台ｌｌｌ,宝塚市逆瀬台5丁目2番367,逆瀬川,阪急今津線,20分,４LDK,119.13m²,-,-,新築,建築中,相談,第一種低層住居専用地域437_buy_sell,"6,280万円",宝塚市仁川高台1丁目中古戸建,宝塚市仁川高台1丁目12-62,仁川,阪急,10分,４LDK,m²,13年,4/1/06,平成18年4月,空家,相談,第1種住居専用地域438_buy_sell,"3,280万円",-,兵庫県宝塚市高司3丁目5-11付近　H号棟,小林,阪急今津線,16分,４LDK,93.75m²,1年,5/1/18,平成30年5月上旬完成済,完成済,要相談,第一種中高層住居専用地域439_buy_sell,"3,680万円",-,兵庫県宝塚市高司3丁目6-11付近　D号棟,小林,阪急今津線,16分,４LDK,98.01m²,1年,5/1/18,平成30年5月上旬完成済,完成済,要相談,第一種中高層住居専用地域440_buy_sell,"3,380万円",-,兵庫県宝塚市高司3丁目6-11付近　E号棟,小林,阪急今津線,16分,４LDK,96.38m²,1年,5/1/18,平成30年5月上旬完成済,完成済,要相談,第一種中高層住居専用地域441_buy_sell,"2,880万円",-,宝塚市伊孑志2丁目17番48号,逆瀬川,阪急今津線,10分,３LDK,58.65m²,-,-,-,更地,-,第一種中高層住居専用地域442_buy_sell,"3,780万円",宝塚市安倉南二丁目　C号地,宝塚市安倉南二丁目62番・63番,宝塚,阪急-バス,16分+6分,４LDK,104.89m²,-,-,-,更地,-,第1種中高層住居443_buy_sell,"3,600万円",宝塚市安倉南二丁目　B号地,宝塚市安倉南二丁目62番・63番,宝塚,阪急-バス,16分+6分,４LDK,106.51m²,-,-,-,更地,-,第1種中高層住居444_buy_sell,"3,680万円",宝塚市安倉南二丁目　A号地,宝塚市安倉南二丁目62番・63番,宝塚,阪急-バス,16分+6分,４LDK,107.45m²,-,-,-,更地,-,第1種中高層住居445_buy_sell,"3,780万円",-,兵庫県宝塚市高司3丁目6-11付近　O号棟,小林,阪急今津線,１６分,４LDK,100.44m²,1年,5/1/18,平成３０年５月下旬完成済,完成済,要相談,第一種中高層住居専用地域446_buy_sell,"3,580万円",-,兵庫県宝塚市高司3丁目6-11付近　B号棟,小林,阪急今津線,１６分,４LDK,96.59m²,1年,5/1/18,平成３０年５月上旬完成済,完成済,要相談,第一種中高層住居専用地域447_buy_sell,"3,680万円",-,兵庫県宝塚市高司3丁目6-11付近　A号棟,小林,阪急今津線,１６分,５LDK,100.２３m²,1年,5/1/18,平成３０年５月下旬完成済,完成済,要相談,第一種中高層住居専用地域448_buy_sell,"4,280万円",-,宝塚市宝松苑１３番１２号,宝塚南口,阪急今津線,１４分,４LDK,109.30m²,1年,6/1/18,平成３０年６月末完成予定,建築中,平成３０年７月上旬以降,第１種低層住居専用地域449_buy_sell,"3,680万円（税込）",-,兵庫県宝塚市野上５丁目,逆瀬川,阪急今津線,１７分,３LDK+S,137.73m²,15年,12/1/04,12/1/04,空家,相談,第１種低層住居専用地域450_buy_sell,4980万円（税込）,-,宝塚市宝梅3丁目1-19,"逆瀬川・宝塚南口
逆瀬川-聖天寺下","阪急今津線
阪急今津線-バス","18分
7分+2分",４LDK,125.04m²,-,-,未完成,建築中,完成後,第一種低層451_buy_sell,3580万円（税込）,-,宝塚市月見山2丁目22,"宝塚
宝塚-月見山第三公園前","阪急宝塚線
阪急-バス","18分
9分+2分",４LDK,97.3m²,1年,9/1/18,H30年9月,建築中,完成後,第一種中高層452_buy_sell,5480万円（税込）,-,宝塚市野上4丁目17-3,逆瀬川,阪急線,17分,４LDK,115.11m²,-,-,-,未完成,相談,第1種低層住居専用地域453_buy_sell,5680万円（税込）,-,宝塚市野上4丁目17-3,逆瀬川,阪急線,17分,４LDK,118.42m²,-,-,-,未完成,相談,第1種低層住居専用地域454_buy_sell,"5,380万円",-,兵庫県宝塚市寿楽荘227-3,宝塚南口,阪急今津線,7分,４LDK,102.87m²,1年,11/1/18,平成30年11月,空家,即時,第一種低層住居専用地域455_buy_sell,"3,680万円",-,宝塚市大吹町12番39,"小林
仁川","阪急今津線
阪急今津線","15分
18分",４LDK,98.82m²,1年,9/1/18,平成30年9月,完成済,相談,第一種中高層456_buy_sell,"4,580万円",千種1丁目プロジェクト　A号地,宝塚市千種1丁目313番地１,小林,阪急今津線,6分,４LDK,104.22m²,1年,6/1/18,H30.6,完成済,即可,第一種低層住居専用地域457_buy_sell,"5,280万円",-,神戸市東灘区森北町2丁目3-5,甲南山手,JR神戸線,3分,４LDK,100.84m²,1年,2/1/18,平成30年2月竣工予定,未完成（平成30年2月予定）,平成30年2月中旬,２中458_buy_sell,"4,480万円",-,兵庫県神戸市東灘区本山中町4丁目　3-21,摂津本山,東海道本線,480ｍ,４LDK,90.45m²,4年,4/1/14,平成26年4月,空家,-,近隣商業地域459_buy_sell,"2,680万円",-,兵庫県神戸市東灘区深江南町2丁目3-34,深江,阪神本線,13分,３LDK,84.43m²,8年,4/1/01,平成13年4月,所有者居住中,相談,第一種住居地域460_buy_sell,"3,530万円",-,神戸市東灘区北青木4丁目2番4号,"青木
摂津本山","阪神本線
JR神戸線","1分
13分",３LDK,95.17m²,1年,2/1/18,平成30年2月,完成済,即日,第1種住居地域461_buy_sell,5090万円（税込）,-,神戸市東灘区田中町2丁目3-23,本山,JR,7分,-,98.77m²,1年,3/1/18,平成30年3月,完成済,即時,第2種住居地域/近隣商業地域462_buy_sell,4790万円（税込）,-,神戸市東灘区田中町2丁目3-23,本山,JR,7分,-,98.18m²,1年,3/1/18,平成30年3月,完成済,即時,第2種住居地域/近隣商業地域463_buy_sell,"5,680万円（税込）",-,神戸市東灘区本山北町4丁目,"岡本
摂津本山
甲南山手","阪急神戸線
JR神戸線
JR神戸線","11分
15分
13分",３LDK+S ,105.33m²,1年,5/1/18,2018年5月完成予定,未完成,期日指定(2018/6下旬）,第1種低層464_buy_sell,"4,280万円",-,神戸市東灘区森北町,甲南山手,JR神戸線,6分,3LDK,112.66m²,16年,6/1/03,6/1/03,空家,相談,第1種低層465_buy_sell,"2,480万円",-,兵庫県神戸市東灘区本庄町3丁目,"深江
甲南山手
岡本","阪神本線
JR東海道線
阪急神戸線","8分
10分
24分",３LDK,68.13m²,6年,6/1/13,2013年(平成25年)06月,居住中,相談,1種住居466_buy_sell,"6,400万円",東灘区鴨子ヶ原3丁目戸建,神戸市東灘区鴨子ヶ原3丁目７－２,御影-甲南病院前,阪急神戸線-バス,5分+3分,４SLDK,131.24m²,14年,3/1/05,平成17年3月,空家,相談,第一種低層住居専用地域467_buy_sell,"5,780万円",-,兵庫県神戸市東灘区御影山手5丁目16-2　旧小松様邸,御影,阪急神戸線,12分,４SLDK,111.78m²,1年,7/1/18,平成30年7月,空家,相談,第一種低層住居専用地域468_buy_sell,"5,680万円",-,兵庫県神戸市東灘区御影山手5丁目16-2　旧小松様邸,御影,阪急神戸線,12分,４SLDK,113.02m²,1年,7/1/18,平成30年7月,空家,相談,第一種低層住居専用地域469_buy_sell,"3,880万円",灘区　森北町7丁目C号地　新築戸建,神戸市東灘区森北町7丁目11-5-2,"甲南山手
芦屋川","JR東海道本線
阪急神戸線","14分
25分",-,94.62m²,1年,7/1/18,平成30年7月,-,-,第1種住居地域470_buy_sell,3980万円（税込）,-,神戸市東灘区青木五丁目18番24,青木,阪神,5分,３LDK,105.52m²,-,-,-,未完成,相談,第1種住居地域471_buy_sell,"4,580万円（税込）",魚崎北町7丁目　新築戸建,兵庫県神戸市東灘区魚崎北町7丁目,魚崎,阪神本線,11分,２LDK+S,100.84m²,1年,8/1/18,8/1/18,完成済,相談,第1種中高層住居専用地域472_buy_sell,"4,580万円（税込）",御影塚町2丁目　新築戸建　A号地,神戸市東灘区御影塚町2丁目21番（以下未定）,"石屋川
六甲道","阪神本線
JR神戸線","5分
14分",1LDK+3S,115.09m²,1年,9/1/18,平成30年9月下旬完成予定,未完成,完成後,第1種住居地域473_buy_sell,"4,880万円（税込）",御影山手の家　新築戸建　3号地,神戸市中央区御影山手６,御影,阪急,19分,４LDK,118.83m²,-,-,-,-,-,第1種低層住居専用地域474_buy_sell,"4,880万円（税込）",御影山手の家　新築戸建　2号地,神戸市中央区御影山手６,御影,阪急,19分,４LDK,115.09m²,-,-,-,-,-,第1種低層住居専用地域475_buy_sell,"4,980万円（税込）",御影山手の家　新築戸建　1号地,神戸市中央区御影山手６,御影,阪急,19分,４LDK,116.34m²,-,-,-,-,-,第1種低層住居専用地域476_buy_sell,"4,580万円（税込）",弓木町四丁目　新築戸建　A号地,神戸市灘区弓木町四丁目　A号地,六甲道,JR神戸線,8分,２LDK+S,95.99m²,-,-,-,空室,残代金決済後,-477_buy_sell,"3,780万円（税込）",-,兵庫県神戸市東灘区高尾通1丁目4－12付近,六甲-五毛,阪急神戸線-バス,6分+5分,４LDK,100.63m²,1年,7/1/18,2018年7月下旬完成予定,建築中,相談,1種低層478_buy_sell,"1,880万円（税込）",-,神戸市灘区桜ヶ丘5-5,六甲,阪急神戸線,11分,３DK,69.62m²,22年,5/1/97,平成9年5月,空家,相談,第一種中高層住居専用地域479_buy_sell,"3,690万円",-,神戸市灘区篠原中町5丁目7番20号,六甲,阪急神戸線,8分,-,91.39m²,-,-,-,完成,即時,第一種中高層住居専用地域480_buy_sell,"5,680万円",-,兵庫県神戸市灘区大土平町2丁目6-1,六甲,阪急神戸線,11分,４LDK,97.49m²,-,-,-,未完成<2018年4月>,相談,第一種低層住居専用地域481_buy_sell,"3,380万円",-,兵庫県神戸市灘区新在家南町5丁目10-7,大石,阪神本線,5分,４LDK,101.59m²,-,-,-,未完成<2018年8月>,予定<2018年9月上旬>,準工業地域482_buy_sell,"5,480万円（税込）",大土平町　新築戸建,神戸市灘区大土平町2丁目6-1,六甲,阪急神戸線,11分,４LDK,97.49m²,1年,6/1/18,平成30年6月,完成済,相談,第一種低層483_buy_sell,"4,080万円（税込）",灘区城の下通　A号地,神戸市灘区城の下通2丁目7番９,王子公園-青谷橋,阪急神戸線-バス,14分+5分,４LDK ,105.49m²,1年,7/1/18,平成30年7月,空家,相談,第一種低層住居専用484_buy_sell,"4,980万円",天城通新築戸建　B号地,神戸市灘区天城通3丁目,"王子公園
摩耶","阪急神戸線
JR東海道本線","10分
14分",３LDK+S ,98.50m²,1年,12/1/18,平成30年12月中旬,未完成,相談　平成30年12月中旬以降,第1種中高層住居専用地域485_buy_sell,"4,980万円",天城通新築戸建　A号地,神戸市灘区天城通3丁目,"王子公園
摩耶","阪急神戸線
JR東海道本線","10分
14分",３LDK+S ,113.12m²,1年,12/1/18,平成30年12月中旬,未完成,相談　平成30年12月中旬以降,第1種中高層住居専用地域486_buy_sell,"1,530万円",朝日プラザ逆瀬川南,宝塚市塔の町3-66,小林,阪急今津線,12分,３LDK,73.03m²,31年,10/1/88,昭和63年10月,空家,即時,第1種住居地域487_buy_sell,"2,299万円（税込）",アムール宝塚オトゥール　204号室,宝塚市川面3-11-15,"宝塚
清荒神","JR福知山線
阪急宝塚本線","10分
8分",３LDK,60.15m²,24年,8/1/95,平成7年8月,空室,相談,-488_buy_sell,"7,080万円",ジオタワー宝塚WEST,宝塚市武庫川町6-25,清荒神,阪急宝塚線,7分,３LDK,115.87m²,10年,12/1/09,平成21年12月,居住中,相談,商業地域489_buy_sell,"4,580万円",ワコーレ仁川ザ・レジテンス　5階,兵庫県宝塚市仁川北2丁目,仁川,阪急今津線,7分,２LDK+S,77.88m²,3年,8/1/16,平成28年（2016年）8月,居住中,期日指定（2019年3月中旬以降）,第一種中高層住居専用地域490_buy_sell,"2,680万円",メゾンドール仁川,宝塚市仁川北2丁目13-46,仁川,阪急今津線,7分,３LDK,70.95m²,21年,5/1/98,平成10年5月,居住中,5/1/19,第1種中高層住居専用地域491_buy_sell,1750万円,ラ・ビスタ宝塚サウステラス1番館,宝塚市すみれガ丘1丁目6-1,宝塚-すみれガ丘1丁目,阪急宝塚線-バス,13分+1分,-,88.79m²,29年,2/1/90,平成2年2月,-,相談,-492_buy_sell,"1,250万円",向陽ハイツ　1階,宝塚市野上2丁目4-16,逆瀬川,阪急今津線,3分,２LDK,59.64m²,46年,7/1/73,昭和48年7月,空家,相談,第一種中高層住居専用地域493_buy_sell,"1,280万円",ラ・ビスタ宝塚サウステラス2番館,宝塚市すみれガ丘3丁目５-2,宝塚-バス,阪急宝塚線-バス,17分+1分,３LDK,70.11m²,24年,5/1/95,平成7年5月,空家,相談,第1種中高層住居専用地域494_buy_sell,"1,580万円",コスモ宝塚ツインフォルム,宝塚市末成町19-51,小林,阪急今津線,13分,３LDK,67.35m²,21年,7/1/98,平成10年7月,居住中,期日指定　平成30年12月上旬,第1種中高層住居専用地域495_buy_sell,"4,980万円",ジオタワー宝塚WEST,宝塚市武庫川町6-25,清荒神,阪急宝塚線,7分,３SLDK,93.98m²,10年,12/1/09,平成21年12月,居住中,相談,商業地域496_buy_sell,"2,850万円",ユニベール宝塚,兵庫県宝塚市川面5丁目8番,"宝塚
宝塚","JR福知山線
阪急宝塚線・今津線","1分
2分",２LDK,66.17m²,30年,11/1/89,平成元年11月,空家,即時,近隣商業地域497_buy_sell,"2,550万円",キングレジテンス　ラ・セーヌ宝塚　7階,宝塚市栄町3丁目9-3,"宝塚
宝塚","JR福知山線
阪急宝塚線・今津線","6分
7分",1LDK+3S,66.19m²,14年,10/1/05,平成17年10月,所有者居住中,相談,商業地域498_buy_sell,1630万円,ラ・ビスタ宝塚プラーザコムズ,宝塚市すみれガ丘2丁目5-1,宝塚-すみれガ丘中央,阪急宝塚線-バス,13分+1分,4LDK,82.50m²,25年,2/1/94,平成6年2月,-,相談,-499_buy_sell,"1,498万円（税込）",ラ・ビスタ宝塚ウエストウイング・オクシア,宝塚市すみれガ丘3丁目1-1,宝塚-バス,阪急宝塚線-バス,10分+2分,３LDK,73.97m²,23年,2/1/96,平成8年2月,空家,完成後　平成30年12月中旬,第1種中高層住居専用地域500_buy_sell,"2,180万円",サンリーノ逆瀬川野上,宝塚市野上6丁目,"逆瀬川-宝塚ゴルフ場
逆瀬川","阪急今津線-バス
阪急今津線","3分+1分
18分",２LDK+S ,74.17m²,27年,5/1/92,5/1/92,空家,相談,第1種中高層501_buy_sell,"2,780万円",アムール宝塚オトゥール,宝塚市川面3丁目11-15,宝塚,阪急今津線,9分,３LDK,75.48m²,24年,5/1/95,平成7年5月,居住中,相談,第1種住居地域502_buy_sell,"1,780万円",宝塚エリー,兵庫県宝塚市弥生町,"宝塚-総合福祉センター前
宝塚-総合福祉センター前","福知山線-バス
阪急今津線-バス",8分+7分,３LDK,70.14m²,11年,1/1/08,1/1/08,居住中,相談,第二種住居503_buy_sell,"3,480万円",アズ・マリオンレーソル,宝塚市武庫川山2丁目４－４５,宝塚南口,阪急今津線,6分,３LDK,85.5m²,15年,11/1/04,平成16年11月,居住中,相談,第1種中高層住居専用地域504_buy_sell,"2,200万円",ディアステージ宝塚,宝塚市美座2丁目20-8,清荒神,阪急宝塚線,10分,３LDK,75.6m²,21年,2/1/98,平成10年2月,空家,即時,第1種中高層住居専用地域505_buy_sell,1050万円,ラ・ビスタ宝塚ウエストウイング1番館,宝塚市すみれガ丘2丁目2-1,宝塚-すみれガ丘2丁目,阪急宝塚線-バス,15分+2分,-,81.31m²,-,-,-,-,即,-506_buy_sell,"1,380万円",ラ・ビスタ宝塚ウエストウイング・オクシア,宝塚市すみれガ丘3丁目,宝塚-すみれガ丘2丁目,JR福知山線-バス,9分+2分,４LDK,78.75m²,23年,2/1/96,平成8年2月,-,相談,第1種中高層住居専用地域507_buy_sell,"2,580万円",セントポリア仁川,宝塚市仁川旭が丘4-31,仁川,阪急今津線,14分,３LDK,121.90m²,27年,4/1/92,平成4年4月,空家,即可,第1種住居専用地域508_buy_sell,"1,700万円",ラ・ビスタ宝塚ノースハイツ1番館,兵庫県宝塚市すみれガ丘3丁目2-1,宝塚-すみれガ丘3丁目,福知山線-バス,15分+1分,3LDK,92.01m²,27年,2/1/92,平成4年2月,空,相談,第一種中高層住居専用地域509_buy_sell,"2,480万円",-,宝塚市梅野町4番19　802号,"宝塚南口
宝塚","阪急今津線
阪急今津線","5分
8分",４LDK,82.74m²,22年,2/1/97,平成9年2月,空き,即,-510_buy_sell,2980万円,ラ・ビスタ宝塚サウステラス1番館,宝塚市すみれガ丘1丁目6-1,宝塚-すみれガ丘1丁目,阪急宝塚線-バス,13分+1分,4LDK,122.57m²,29年,2/1/90,平成2年2月,-,相談,-511_buy_sell,"1,480万円",コト-宝塚A棟,宝塚市栄町3丁目6-11,宝塚,阪急今津線,6分,３LDK,69.72m²,35年,7/1/84,昭和59年7月,空家,相談,第2種住居地域512_buy_sell,2180万円,ラ・ビスタ宝塚サウステラス1番館,宝塚市すみれガ丘1丁目6-1,宝塚-すみれガ丘1丁目,阪急宝塚線-バス,13分+1分,4LDK,90.58m²,29年,2/1/90,平成2年2月,-,即,-513_buy_sell,"1,680万円",ラ・ビスタ宝塚エスティオ二番館,宝塚市すみれガ丘3丁目,宝塚-すみれガ丘東,阪急宝塚線-バス,15分+1分,３LDK,72.57m²,24年,5/1/95,5/1/95,空室,即時,第一種中高層住居専用地域514_buy_sell,"1,980万円（税込）",宝塚エリー　2階,兵庫県宝塚市弥生町5-1,宝塚-総合福祉センター前,福知山線-バス,7分+9分,３LDK,74.08m²,11年,1/1/08,1/1/08,空家,相談,第2種住居地域515_buy_sell,"1,780万円",宝梅アーバンライフ,宝塚市宝梅二丁目6-89,"宝塚南口
逆瀬川","阪急今津線
阪急今津線","15分
18分",４LDK,110.90m²,36年,11/1/83,昭和58年11月,空室,相談,第一種低層住居専用地域516_buy_sell,"3,680万円",サンメゾン宝塚エルド,兵庫県宝塚市東洋町6番1　307,逆瀬川,阪急今津線,19分,4LDK,90.72m²,3年,1/1/16,平成28年1月,空家,即時,第一種住居地域517_buy_sell,"1,998万円（税込）",ラ・ビスタ宝塚エスティオ1番館,宝塚市すみれガ丘3丁目,宝塚-すみれガ丘東,阪急宝塚線-バス,15分+1分,３LDK,84.96m²,25年,1/1/94,1/1/94,空室,相談,第一種中高層住居専用地域518_buy_sell,"1,750万円",パレロワイヤル宝塚南口,宝塚市湯本町5-3,宝塚南口,阪急今津線,4分,3ＬＤＫ,88.3m²,37年,2/1/82,昭和57年2月,空家,即時,商業地域519_buy_sell,"1,830万円",ラ・ビスタ宝塚レフィナス2番館,宝塚市すみれガ丘3丁目,宝塚-すみれガ丘北公園前,阪急宝塚線-バス,15分+1分,３LDK,76.48m²,11年,1/1/08,1/1/08,居住中,相談,第1種中高層520_buy_sell,"2,380万円",ラ・ビスタ宝塚レフィナス2番館,宝塚市すみれガ丘3丁目3-2,宝塚-バス,阪急宝塚線-バス,8分+1分,２SLDK,76.53m²,12年,1/1/07,平成19年1月,空家,相談,第1種中高層住居専用地域521_buy_sell,"1,680万円",宝梅アーバンライフ,宝塚市宝梅二丁目6-89,逆瀬川,阪急今津線,15分,３LDK,96.34m²,-,-,平成58年12月,空家,即時,第一種低層住居専用地域522_buy_sell,2330万円,ラ・ビスタ宝塚　ラ・メゾン,宝塚市すみれガ丘2丁目3-1,宝塚-すみれガ丘中央,阪急宝塚線-バス,13分+2分,-,123.98m²,27年,2/1/92,平成4年2月,-,相談,-523_buy_sell,"3,738万円",サンメゾン宝塚エルド,兵庫県宝塚市東洋町6番1　607,逆瀬川,阪急今津線,19分,4LDK,90.72m²,3年,1/1/16,平成28年1月,空家,即時,第一種住居地域524_buy_sell,"2,850万円",サンメゾン宝塚エルド,兵庫県宝塚市東洋町6-1,逆瀬川,阪急今津線,19分,３LDK+S,73.56m²,3年,3/1/16,平成28年3月,空,相談,工業地域525_buy_sell,"1,490万円",宝塚小浜コーポラス　706号室,宝塚市小浜2-5-40,逆瀬川-小浜1丁目,阪急今津線―バス,6分+1分,３LDK,70.0m²,40年,3/1/79,昭和54年3月,空室,相談,-526_buy_sell,"2,480万円（税込）",メロディーハイム宝塚,宝塚市梅野町4番19号,"宝塚南口
宝塚
宝塚","阪急今津線
阪急宝塚線
JR福知山線","5分
8分
9分",４LDK ,92.74m²,22年,2/1/97,平成9年2月,空家,相談,商業527_buy_sell,"3,099万円（税込）",ステイツ宝塚・グランでヒルズウエスト　402号室,宝塚市旭町1-11-13,清荒神,阪急宝塚線,4分,３LDK,77.21m²,19年,3/1/00,平成12年3月,空室,相談,-528_buy_sell,"2,380万円",グランドール逆瀬川,宝塚市伊孑志2丁目4-29,逆瀬川,阪急今津線,8分,３LDK,72.9m²,22年,3/1/97,平成9年3月,空家,即時,第1種中高層住居専用地域529_buy_sell,"3,780万円",ブランズ宝塚梅野町,宝塚市梅野4-29,宝塚美座,阪急今津線,4分,３LDK,72.34m²,4年,2/1/15,平成27年2月,居住中,相談,商業地域530_buy_sell,1980万円,ラ・ビスタ宝塚　サウステラス2番館,宝塚市すみれガ丘1丁目7-1,宝塚-すみれガ丘1丁目,阪急宝塚線-バス,13分+2分,４LDK,112.85m²,29年,2/1/90,平成2年2月,-,即,-531_buy_sell,1060万円,ラ・ビスタ宝塚　ウエストウイング3番館,宝塚市すみれガ丘2丁目1-2,宝塚-すみれガ丘2丁目,阪急宝塚線-バス,15分+2分,-,80.61m²,28年,2/1/91,平成3年2月,-,即,-532_buy_sell,"1,650万円",ラ・ビスタ宝塚　ウエストウイング2番館,宝塚市すみれガ丘2丁目1-1,宝塚-バス,阪急宝塚線-バス,9分+1分,３LDK,82.22m²,28年,2/1/91,平成3年2月,居住中,期日指定　平成30年5月末,第1種中高層住居専用地域533_buy_sell,"2,780万円",エスリード宝塚,兵庫県宝塚市栄町3丁目10-12,"宝塚
宝塚","JR線
阪急線","7分
8分",３LDK,63.44m²,14年,2/1/05,2/1/05,空室,-,-534_buy_sell,"3,190万円",ステイツ宝塚ツイン・グランでヒルズウエスト　4階,兵庫県宝塚市旭町1丁目,清荒神,阪急宝塚線,4分,３LDK,77.21m²,19年,3/1/00,平成12年（2000年）3月,空家,即可（但し、残代金支払い後）,第二種中高層住居専用地域535_buy_sell,"3,280万円",グランプレイズ宝塚南口,宝塚市梅野町2-25,宝塚南口,阪急今津線,3分,３LDK,76.12m²,19年,7/1/00,平成12年7月,居住中,-,商業地域536_buy_sell,"2,860万円",サンメゾン宝塚エルド,兵庫県宝塚市東洋町6番1　305,逆瀬川,阪急今津線,19分,３LDK,72.2m²,3年,1/1/16,平成28年1月,空家,即時,第一種住居地域537_buy_sell,"3,238万円",サンメゾン宝塚エルド,兵庫県宝塚市東洋町6番1　312,逆瀬川,阪急今津線,19分,３LDK,80.57²,3年,1/1/16,平成28年1月,空家,即時,第一種住居地域538_buy_sell,"3,380万円",アズ・マリオンレーソル,宝塚市武庫山2丁目4-45,宝塚南口,阪急今津線,6分,4LDK,85.5m²,15年,11/1/04,平成16年11月,居住中,相談,第1種中高層住居専用地域・商業地域539_buy_sell,"2,480万円",エスリード宝塚,宝塚市栄町3丁目10-12,宝塚,JR福知山線,7分,３LDK,65.45m²,14年,2/1/05,平成17年2月,居住中,相談,商業地域540_buy_sell,"1,380万円",ラ・ビスタ宝塚ウエストウイング・オクシア,宝塚市すみれガ丘3丁目1-1,宝塚-バス,阪急宝塚線-バス,10分+2分,３LDK,75m²,23年,2/1/96,平成8年2月,空家,即時,第1種中高層住居専用地域541_buy_sell,1230万円,ラ・ビスタ宝塚　イーストヴィラ1番館,宝塚市すみれガ丘3丁目6-1,宝塚-すみれガ丘中央,阪急宝塚線-バス,13分+2分,-,86.06m²,26年,1/1/93,平成5年1月,-,即,-542_buy_sell,"4,780万円",ファミール宝塚グランスイートタワー　１１０３号室,兵庫県宝塚市武庫川町１番５号,宝塚南口,阪急今津線,４分,3LDK,93.04m²,16年,9/1/03,9/1/03,空室,相談,商業地域543_buy_sell,"3,080万円",藤和宝塚ホームズ,宝塚市武庫川町5-36,宝塚南口,阪急今津線,10分,２SLDK,93.02m²,24年,5/1/95,平成7年5月,居住中,相談,商業地域544_buy_sell,"1,490万円",宝塚小浜コーポラス,宝塚市小浜2丁目5-40,逆瀬川-バス,阪急今津線-バス,6分+1分,３LDK,70m²,40年,3/1/79,昭和54年3月,空家,即時,第1種住居地域545_buy_sell,"3,680万円",ネバーランド逆瀬川野上,宝塚市野上3丁目12-50,逆瀬川,阪急今津線,12分,４LDK,92.06m²,8年,12/1/11,平成23年12月,空家,相談,第１種低層住居専用地域546_buy_sell,"1,490万円",ドルミ宝塚御殿山,宝塚市川面6丁目27-15,宝塚,JR福知山線,7分,４DK,79.93m²,38年,4/1/81,昭和56年4月,空家,相談,第１種低層住居専用地域547_buy_sell,"2,490万円",エスリード宝塚,宝塚市栄町3丁目10-12,宝塚,JR福知山線,7分,３LDK,63.44m²,14年,2/1/05,平成17年2月,居住中,期日指定　平成30年6月末,商業地域548_buy_sell,"2,490万円",セレネ宝塚,宝塚市旭町2丁目20-16,清荒神,阪急宝塚線,9分,３LDK,76.37m²,23年,2/1/96,平成8年2月,居住中,相談,第2種中高層住居専用地域549_buy_sell,"4,180万円",-,宝塚市伊孑志2丁目3-15,"逆瀬川
宝塚南口","阪急今津線
阪急今津線","10分
15分",４LDK,102.06m²,1年,3/1/18,平成30年3月,空,即時,第1種中高層550_buy_sell,"4,480万円",ブランズ宝塚梅野町,宝塚市梅野町4-29,宝塚南口,阪急今津線,5分,４LDK,80.41m²,4年,2/1/15,平成27年2月,居住中,相談,商業地域551_buy_sell,"5,100万円",ファミール宝塚グランスイートタワー,宝塚市武庫川町,"宝塚南口
宝塚
宝塚","阪急今津線
JR宝塚線
阪急宝塚線","4分
8分
8分",２LDK,96.76m²,,9/1/03,9/1/03,空家,即時,商業552_buy_sell,"1,380万円",NEOダイキョー逆瀬川,宝塚市中州1丁目3番2号106,宝塚南口,阪急今津線,6分,３DK ,57.83m²,,10/1/86,昭和61年10月,空家,即,第1種中高層553_buy_sell,"2,730万円",メゾンドール仁川　402号室,兵庫県宝塚市仁川北,仁川,阪急今津線,10分,２LDK+S ,69.24m²,,5/1/98,平成10年5月,空室,相談,-554_buy_sell,"1,280万円",ラ・ビスタ宝塚ノースハイツ一番館　1階,兵庫県宝塚市すみれガ丘3丁目2-1,宝塚-すみれガ丘3丁目,阪急宝塚線-バス,15分+1分,３LDK,85.60m²,,2/1/92,2/1/92,空家,相談,第1種中高層住居専用地域555_buy_sell,"1,680万円（税込）",サンライズ宝塚,宝塚市旭町3丁目10-1　410号室,"清荒神
宝塚南口","阪急宝塚線
阪急今津線","11分
18分",３LDK,73.67m²,,4/1/86,昭和61年4月,空家,即時,一種住居556_buy_sell,"1,880万円（税込）",ラ・ビスタ宝塚イーストヴィラ一番館　1階,兵庫県宝塚市すみれガ丘3丁目6-1,宝塚-すみれガ丘,阪急宝塚線-バス,13分+2分,４LDK,99.50m²,,2/1/93,2/1/93,空家,相談,第1種中高層住居専用地域557_buy_sell,"2,100万円",ラ・ビスタ宝塚レフィナス2番館,兵庫県宝塚市すみれガ丘3丁目3番2,宝塚-すみれガ丘北公園前,阪急宝塚線-バス,15分+1分,３LDK,92.60m²,,1/1/08,1/1/08,居住中,相談,第1種中高層住居専用地域558_buy_sell,"2,480万円",ダイアパレス宝塚市月見山,宝塚市月見山1丁目3-24,宝塚,阪急宝塚線,8分,４LDK,81.41m²,,3/1/97,平成9年3月,居住中,相談,第1種中高層住居専用地域559_buy_sell,"1,490万円",サンハイツ宝塚,兵庫県宝塚市小浜2丁目5-25　903,逆瀬川-バス,阪急今津線-バス,7分+1分,３LDK,66.7m²,,11/1/84,昭和59年11月,空家,即時,第一種住居地域560_buy_sell,"1,400万円",ベルメゾン仁川,兵庫県宝塚市仁川北1丁目1-15　４０３,仁川,阪急今津線,800m,３LDK,72.63m²,,4/1/77,昭和52年4月,空家,即時,第一種中高層住居専用地域561_buy_sell,"7,480万円",セレッソコート御影ヒルズ光陵館,兵庫県神戸市東灘区鴨子ヶ原2丁目3-14　313,御影-甲南病院前,阪急神戸線-バス,6分+2分,４SLDK,164.03m²,,1/1/05,平成17年1月,所有者居住中,相談,第一種低層住居専用地域562_buy_sell,2550万円,Brillia六甲アイランドブランズリビオ,神戸市東灘区向洋町中5丁目,アイランド北口,六甲アイランド線,5分,３LDK,77.70m²,,1/1/08,平成20年1月,居住中,相談,-563_buy_sell,1680万円,御影グランドハイツ,神戸市東灘区住吉山手4丁目6番32,御影,阪急神戸線,8分,３LDK,79.59m²,,12/1/69,昭和44年12月,空室,即時,第一種中高層564_buy_sell,"1,980万円",魚崎レックスマンション2号棟,兵庫県神戸市東灘区魚崎南町2丁目,青木,阪神本線,11分,１SLDK,62.15m²,,6/1/84,6/1/84,空室,相談,第一種住居地域565_buy_sell,"2,880万円",ピアフェスタ青木駅前,神戸市東灘区青木6丁目,青木,阪神本線,1分,３LDK,65.11m²,,3/1/08,平成20年3月,居住中,相談,近隣商業566_buy_sell,"2,200万円",RICウエストコート5番街3番館,神戸市東灘区向洋町中5丁目,アイランドセンター,六甲ライナー,6分,3LDK,90.00m²,,2/1/89,2/1/89,居住中,相談,第1種住居567_buy_sell,"1,280万円",岡本パークマンション,神戸市東灘区岡本7丁目14番15,岡本,阪急神戸線,12分,２LDK,54.35m²,,3/1/72,昭和47年3月,所有者居住中,相談,第一種低層住居専用地域568_buy_sell,"5,280万円",セレッソコート御影ヒルズ光陵館,神戸市東灘区鴨子ヶ原2丁目,御影,阪急神戸線,2分,３LDK,114.09m²,,1/1/05,1/1/05,空家,相談,第1種低層569_buy_sell,"1,980万円（税込）",東灘コースとアヴェニュー壱番館,神戸市東灘区青木2丁目,青木,阪神本線,7分,３LDK ,73.45m²,,3/1/89,3/1/89,空家,即時,第1種住居570_buy_sell,"1,780万円",コスモ住吉川,兵庫県神戸市東灘区住吉宮町2丁目,住吉,東海道本線,8分,２LDK ,54.52m²,,9/1/86,9/1/86,居住中,相談,-571_buy_sell,3280万円,Brilliaレジデンス六甲アイランド,神戸市東灘区向洋町中5丁目,アイランド北口,六甲アイランド線,6分,４LDK,90.81m²,,1/1/12,平成24年1月,居住中,ｈ30年3月下旬以降,-572_buy_sell,"5,680万円",エルグレース御影中町,神戸市東灘区御影中町1丁目14番5号,"御影
住吉
住吉","阪神本線
JR神戸線
六甲アイランド線","3分
9分
9分",３LDK,75.13m²,,,平成27年1月,居住中,相談,第1種住居/近隣商業573_buy_sell,"3,080万円",リッツ御影,神戸市東灘区御影塚町1丁目3-19,"石屋川
御影","阪神本線
阪神本線","7分
15分",３LDK,74.07m²,,,2016（平成28）年10月,居住中,相談,準工業地域574_buy_sell,"1,980万円（税込）",パレス東灘,兵庫県神戸市東灘区本庄町3丁目,"甲南山手
深江","JR東海道本線
阪神本線","10分
5分",２LDK,55.00m²,,,2/1/79,空家,即時,第一種住居地域575_buy_sell,"1,690万円",グリーンコーポ深江　407号室,神戸市東灘区深江南町2丁目12-8,深江,阪神本線,9分,３LDK,71.32m²,,,昭和56年9月,空家,即時,第一種中高層住居専用地域576_buy_sell,"1,880万円",ライオンズマンション魚崎,神戸市東灘区魚崎北町4丁目,"魚崎
住吉
魚崎","阪神本線
JR神戸線
六甲ライナー","5分
10分
4分",３DK,59.67m²,,,8/1/80,居住中,相談,第1種中高層577_buy_sell,"3,300万円",東灘スカイマンション,神戸市東灘区田中町5丁目,"住吉
摂津本山
岡本","JR神戸線
JR神戸線
阪急","8分
13分
14分",３LDK,74.45m²,,,5/1/99,空家,相談,"近隣商業
第1種中高層"578_buy_sell,5480万円,ワコーレ神戸本山ガーデンス,神戸市東灘区本山南町七丁目8-30,"摂津本山
岡本
青木","JR神戸線
阪急神戸線
阪神本線","10分
14分
14分",-,90.97m²,,,平成20年1月,空家,即時,-579_buy_sell,"1,790万円",魚崎レックスマンションｌｌ号棟　404号室,神戸市東灘区魚崎南町2-6-9,"青木
魚崎","阪神本線
阪神本線","11分
14分",３LDK,62.15m²,,,昭和59年5月,空室,相談,-580_buy_sell,"1,830万円（税込）",モンラヴィ　北青木,神戸市東灘区北青木3丁目,"青木
摂津本山","阪神本線
JR神戸線","4分
12分",２LDK,59.58m²,,,8/1/84,空家（平成30年2月22日完工予定）,相談,第1種住居581_buy_sell,"3,180万円",東急ドエル・アルス住吉駅前,神戸市東灘区住吉宮町4丁目,"住吉
御影","JR神戸線
阪神本線","1分
11分",２LDK,54.82m²,,,12/1/97,空家,即時,近隣商業582_buy_sell,"1,450万円",ジークレフ御影台A棟,兵庫県神戸市東灘区御影山手3丁目3-2　302,御影,阪急神戸線,14分,３LDK,66.83m²,,,昭和54年9月,空家,即時,第一種中高層住居専用地域583_buy_sell,"1,980万円",RICイーストコート8番街,神戸市東灘区向洋町中3丁目,アイランドセンター,六甲ライナー,7分,２LDK,63.96m²,,,平成7年7月,空室,-,第1種住居地域584_buy_sell,"1,580万円",北御影アーバンライフ,神戸市東灘区御影山手5丁目2-28,御影,阪急神戸線,13分,４SLDK,98.00m²,,,昭和45年2月,空室,相談,第一種中高層住居専用地域585_buy_sell,"3,180万円",住吉山コモンズC棟,兵庫県神戸市東灘区住吉山手7丁目2-3,御影,阪急神戸本線,15分,４LDK,85.82m²,,,2003/11,空家,即時,第一種低層住居専用地域586_buy_sell,"2,496万円（税込）",エステート岡本,兵庫県神戸市東灘区岡本4丁目6-8,"岡本
摂津本山","阪急神戸線
JR神戸線","10分
11分",２LDK,54.25m²,,,昭和49年9月,空室,相談,第1種低層住居専用地域587_buy_sell,"3,050万円",東灘ロイヤルマンション,神戸市東灘区本山南町3丁目10-30,摂津本山,JR,14分,４LDK,98.88m²,,,9/1/81,空室,相談,-588_buy_sell,2680万円,ヴィルビュ魚崎北町,神戸市東灘区魚崎北町4丁目7-16,"魚崎
住吉","阪神本線
JR東海道本線","9分
13分",３LDK,73.40m²,,,H10年10月,空家,即時,第一種低層住居専用地域589_buy_sell,"4,280万円",小原田コーポラス403,神戸市東灘区住吉本町2丁目10-18,住吉,JR東海道線,5分,２LDK,70.01m²,,,12/1/95,空室,相談,第1種低層住居専用地域590_buy_sell,"2,380万円",RICウエストコート3番街,神戸市東灘区向洋町5丁目,アイランド北口,六甲アイランド線,2分,３LDK,87.83m²,,,平成5年6月,空室,相談,第1種住居地域591_buy_sell,"1,950万円",ライオンズマンション御影第弐　3階,兵庫県神戸市東灘区御影郡家2丁目19-8,御影,阪急神戸線,2分,２LDK,52.58m²,,,5/1/84,居住中,相談,近隣商業地域592_buy_sell,"1,680万円",浜芦屋マンション,神戸市東灘区深江南町1丁目9-25,芦屋,阪神本線,9分,３LDK,123.21m²,,,S40年1月,居住中,相談,1種中高層593_buy_sell,"3,890万円（税込）",ワコーレ神戸本山　204号室,神戸市東灘区本山南町3-6-33,"摂津本山
青木","JR東海道本線
阪神本線","11分
10分",３LDK,66.20m²,,,平成15年7月,空室,相談,-594_buy_sell,"1,390万円（税込）",甲南グランドハイム御影　313号室,神戸市東灘区御影石町1-2-3,"石屋川
御影","阪神本線
阪神本線","7分
12分",２LDK,42.78m²,,,昭和59年12月,空室,相談,-595_buy_sell,"3,480万円",住吉公園アーバンライフ,神戸市東灘区住吉宮町5丁目9-28,"住吉
御影
住吉","JR神戸線
阪神本線
阪神本線","7分
6分
4分",３LDK,70.87m²,,,平成12年9月,空室（3/25以降内覧可）,相談,第一種住居地域596_buy_sell,"1,480万円（税込）",山御影マンションE棟,兵庫県神戸市東灘区御影山手3丁目1-5,御影,阪急神戸線,10分,３LDK,74.87m²,,,8/1/67,居住中,2018年7月上旬予定,第一種中高層住居専用地域597_buy_sell,"2,980万円（税込）",本山東パーク・ホームズ,神戸市東灘区本庄町2丁目1-1,"甲南山手
深江","JR神戸線
阪神本線","8分
7分",３LDK,66.29m²,,,平成9年3月,空室,即時,第一種住居地域598_buy_sell,"1,610万円",甲南第5東灘ハイム,神戸市東灘区甲南町4丁目,"摂津本山
住吉","JR神戸線
JR神戸線","13分
12分",２LDK,48.94m²,,,11/1/81,空家,即時,第1種中高層599_buy_sell,"3,680万円",ワコーレ甲南テラス（2階部分）,神戸市東灘区甲南町3丁目,摂津本山,JR東海道線,9分,-,68.21m²,,,平成22年10月,空室,相談,近隣商業地域600_buy_sell,"3,780万円",メゾンセルサス御影,神戸市東灘区鴨子ヶ原2丁目3番22号,"御影-甲南病院前
御影","阪急神戸線-バス
阪急神戸線","5分+3分
10分",２LDK,101.27m²,,,4/1/08,居住中（4月末退去予定）,相談,第一種低層住居専用地域601_buy_sell,,御影グレイスハイツ　[502号室],神戸市東灘区御影本町2-16-3,,,,,m²,,,,,,602_buy_sell,,フォレスト南本山　104,兵庫県神戸市東灘区本山南町8丁目5－16,,,,,m²,,,,,,603_buy_sell,,RICウエストコート5番街3番館,神戸市東灘区向洋町中5丁目5-533,,,,,m²,,,,,,604_buy_sell,,甲南グランドハイム本山　2階,神戸市東灘区本山南町4丁目3－16,,,,,m²,,,,,,605_buy_sell,,グランベース芦屋川　ロジュマン　502号室,神戸市東灘区深江南町1-16-33,,,,,m²,,,,,,606_buy_sell,,本山東パーク・ホームズ,神戸市東灘区本庄町2丁目1－1,,,,,m²,,,,,,607_buy_sell,,ファミーユ本山,神戸市東灘区本山中町4丁目11-19,,,,,m²,,,,,,608_buy_sell,,ドムール神戸住吉川,兵庫県神戸市東灘区住吉南町1-12-5,,,,,m²,,,,,,609_buy_sell,,ライオンズマンション魚崎,神戸市東灘区魚崎北町4丁目14－15,,,,,m²,,,,,,610_buy_sell,,甲南金沢コーポ,神戸市東灘区江南町4丁目,,,,,m²,,,,,,611_buy_sell,,ラ・フルール本山　[709号室],神戸市東灘区本山南町5-3-1,,,,,m²,,,,,,612_buy_sell,,コート御影　310号室,神戸市東灘区住吉本町3－15－21,,,,,,,,,,,613_buy_sell,,カネボウ芦屋アーバンプラザ,兵庫県神戸市東灘区深江南町1丁目,,,,,,,,,,,614_buy_sell,,ライオンズマンション神戸本山,神戸市東灘区本山南町六丁目1－22,,,,,,,,,,,615_buy_sell,,グラン・パレ芦屋ウエスト,神戸市東灘区深江本町1丁目6番16,,,,,,,,,,,616_buy_sell,,魚崎コーポラス,神戸市東灘区魚崎中町1丁目6－3,,,,,,,,,,,617_buy_sell,,浜芦屋マンション,神戸市東灘区深江南町1丁目9－25,,,,,,,,,,,618_buy_sell,,サンハイツ魚崎,兵庫県神戸市東灘区魚崎南町5丁目,,,,,,,,,,,619_buy_sell,,RICウエストコート3番街1番館,神戸市東灘区向洋町中5丁目,,,,,,,,,,,620_buy_sell,,ワコーレヴィ　エント　北青木,兵庫県神戸市東灘区北青木3丁目,,,,,,,,,,,621_buy_sell,,ザ・ハウス住吉本町,神戸市東灘区住吉本町3丁目1-17,,,,,,,,,,,622_buy_sell,,エステート岡本421号室,神戸市東灘区岡本4丁目6－8,,,,,,,,,,,623_buy_sell,,魚崎ハイツ　[205号室],神戸市東灘区甲南町4-4-11,,,,,,,,,,,624_buy_sell,,セレッソコート御影ヒルズ光陵館　（1階）,兵庫県神戸市東灘区鴨子ヶ原2丁目3－14,,,,,,,,,,,625_buy_sell,,グラン・フェルティ東灘住吉川,神戸市東灘区魚崎北町8丁目6－1,,,,,,,,,,,626_buy_sell,,御影パークマンション　611号室,神戸市東灘区住吉山手1丁目10－23,,,,,,,,,,,627_buy_sell,,住吉アーバンライフ,神戸市東灘区住吉本町1丁目18－2,,,,,,,,,,,628_buy_sell,,RICイーストコート10番街1番館,神戸市東灘区向洋町中3丁目1－10-1,,,,,,,,,,,629_buy_sell,,RICイーストコート4番街5番館,神戸市東灘区向洋町中1丁目4－125,,,,,,,,,,,630_buy_sell,,サンヴィラ湊川　（5階）,兵庫県神戸市兵庫区荒田町1丁目7－15,,,,,,,,,,,631_buy_sell,,エクセルデュオ御崎公園リトモ,神戸市兵庫区吉田町1丁目15－8,,,,,,,,,,,632_buy_sell,,ルネ下沢通,兵庫県神戸市　兵庫区下沢通2丁目,,,,,,,,,,,633_buy_sell,,「菊水コーポ」2号棟,神戸市兵庫区菊水町3丁目1－2,,,,,,,,,,,634_buy_sell,,プリンスコート兵庫,兵庫県神戸市　兵庫区本町1丁目,,,,,,,,,,,635_buy_sell,,湊川パークサイド,神戸市兵庫区下沢通1丁目,,,,,,,,,,,636_buy_sell,,ワコーレシエラ神戸　（2階）,神戸市兵庫区新開地3丁目1－23,,,,,,,,,,,637_buy_sell,,朝日プラザ兵庫永沢町II [402号室],お宇部市兵庫区永沢町2－1－21,,,,,,,,,,,638_buy_sell,,サンワプラザ大開通　10階,神戸市兵庫区大開通10丁目,,,,,,,,,,,639_buy_sell,,グランパレ神戸ランドタワー　（14階15階）,神戸市兵庫区中道通1丁目3番2,,,,,,,,,,,640_buy_sell,,グランドシャトー兵庫II,兵庫県神戸市兵庫区三川口町2丁目,,,,,,,,,,,641_buy_sell,,水木通ガーデンハイツ　（5階）,兵庫県神戸市兵庫区水木通2丁目2－2,,,,,,,,,,,642_buy_sell,,キャナルタウン中央　（16階）,兵庫県神戸市兵庫区駅南通5丁目1－2,,,,,,,,,,,643_buy_sell,,東灘コーストアヴェニュー弐番館　（9階）,兵庫県神戸市東灘区青木2丁目10－20,,,,,,,,,,,644_buy_sell,,マイシティレックスマンション東灘コーストアヴェニュー参番館,神戸市東灘区青木二丁目284番2－1,,,,,,,,,,,645_buy_sell,,グランベース芦屋川ロジュマン118号,神戸市東灘区深江南町1－16－33,,,,,,,,,,,646_buy_sell,,Brillia 甲南,神戸市東灘区甲南町4丁目2－28,,,,,,,,,,,647_buy_sell,,東急　ドエルアルス住吉本町グランスティージュ,神戸市東灘区住吉本町2丁目10－29,,,,,,,,,,,648_buy_sell,,御影野村ハイツ　D棟,神戸市東灘区住吉本町3丁目9－4,,,,,,,,,,,649_buy_sell,,RICイーストコート4番街8番館,神戸市東灘区向洋町中1丁目,,,,,,,,,,,650_buy_sell,,ラール住吉川スカイハイツ　（2階）,兵庫県神戸市東灘区住吉東町3丁目2－7,,,,,,,,,,,651_buy_sell,,RICウエストコート6番街4番館,神戸市東灘区向洋町中6丁目6－614,,,,,,,,,,,652_buy_sell,,RICイーストコート4番街4番館B棟,神戸市東灘区向洋町中1丁目4－124,,,,,,,,,,,653_buy_sell,,エステート岡本,神戸市東灘区岡本4丁目,,,,,,,,,,,654_buy_sell,,東急ドエル・アルス住吉駅前　（3階）,兵庫県神戸市東灘区住吉宮町4丁目3番13号,,,,,,,,,,,655_buy_sell,,ヴェルティーク住吉川,神戸市東灘区魚崎北町4丁目15－19,,,,,,,,,,,656_buy_sell,,モンラヴィ　本山,兵庫県神戸市東灘区本山町1丁目 11-16,,,,,,,,,,,657_buy_sell,,ワコーレ青木プレイス　（2階）,兵庫県神戸市東灘区青木2丁目15－11,,,,,,,,,,,658_buy_sell,,ハイツオークラ東灘,神戸市東灘区深江南町2丁目13-16,,,,,,,,,,,659_buy_sell,,ドルチェ森北　[502号室],神戸市東灘区森北町1-3-18,,,,,,,,,,,660_buy_sell,,青木グリーンハイツ,神戸市東灘区北青木4丁目1－8 210号室,,,,,,,,,,,661_buy_sell,,グランドール岡本5階,ー,,,,,,,,,,,662_buy_sell,,甲南プランドール御影,神戸市東灘区御影塚町1丁目6－8,,,,,,,,,,,663_buy_sell,,東灘ロイヤルマンション　508,神戸市東灘区本山南町3丁目　10－30,,,,,,,,,,,664_buy_sell,,ライオンズガーデン魚崎壱番館,神戸市東灘区魚崎南町三丁目19番16号,,,,,,,,,,,665_buy_sell,,クルーセ長田駅前　（7階）,神戸市長田区四番町8丁目12,,,,,,,,,,,666_buy_sell,,-,兵庫県神戸市長田区駒ヶ林町2丁目,,,,,,,,,,,667_buy_sell,,-,神戸市長田区苅藻通6丁目,,,,,,,,,,,668_buy_sell,,兵庫県神戸市長田区御船通3丁目　新築戸建,神戸市長田区御船通3丁目7－35,,,,,,,,,,,669_buy_sell,,パルテール新長田　（7階）,神戸市長田区松野通1丁目5－19,,,,,,,,,,,670_buy_sell,,高取台ロイヤルマンション,神戸市長田区林山町1－67,,,,,,,,,,,671_buy_sell,,ブランシエラ新長田　（12階）,兵庫県神戸市長田区久保町6丁目1－６　,,,,,,,,,,,672_buy_sell,,ワコーレ　エスタシオン長田 ,神戸市長田区五番町7丁目3－1,,,,,,,,,,,673_buy_sell,,ワコーレエクセレント北町,兵庫県神戸市　長田区北町2丁目,,,,,,,,,,,674_buy_sell,,サンドール長田南館　（4階）,兵庫県神戸市長田区長田町1丁目3－1,,,,,,,,,,,675_buy_sell,,メイツブラン新長田　（10階）,兵庫県神戸市長田区久保町6丁目1－20,,,,,,,,,,,676_buy_sell,,アスタピア新長田　ステーションフラッツ [601号室],神戸市長田区大橋町4-4-9,,,,,,,,,,,677_buy_sell,,アスタプラザイースト　９０２,神戸市長田区大橋町5丁目3－1,,,,,,,,,,,678_buy_sell,,-,神戸市長田区高取山町2丁目18－18,,,,,,,,,,,679_buy_sell,,-,神戸市長田区大谷町2丁目,,,,,,,,,,,680_buy_sell,,-,神戸市長田区平和台町二丁目,,,,,,,,,,,681_buy_sell,,-,神戸市長田区川西通三丁目64番1 ,,,,,,,,,,,682_buy_sell,,サンシャイン新長田,神戸市長田区大橋町４丁目3－5,,,,,,,,,,,683_buy_sell,,-,高取山町二丁目13番,,,,,,,,,,,684_buy_sell,,-,高取山町二丁目13番,,,,,,,,,,,685_buy_sell,,高取台ロイヤルマンション　（12階）,兵庫県神戸市長田区林山町1番地67,,,,,,,,,,,686_buy_sell,,シャトラン夢野302号室,神戸市兵庫区夢野町3丁目13－13－302号,,,,,,,,,,,687_buy_sell,,エクセルスクエア御崎公園　（2階）,兵庫県神戸市兵庫区浜中街2丁目1－17,,,,,,,,,,,688_buy_sell,,アルファステイツ上沢,兵庫県神戸市　兵庫区下沢通8丁目,,,,,,,,,,,689_buy_sell,,ローレル水木通,神戸市兵庫区水木通1丁目5－26,,,,,,,,,,,690_buy_sell,,ワコーレ兵庫ブランセ　中古マンション,兵庫県神戸市兵庫区三川口町1丁目4-16,,,,,,,,,,,691_buy_sell,,-,神戸市兵庫区港山町1番2号　（旧住居表示）,,,,,,,,,,,692_buy_sell,,リベールKOBE兵庫ジェネックス,神戸市兵庫区松原通5丁目1－21,,,,,,,,,,,693_buy_sell,,ワコーレステーションプラザ兵庫　（2階）,兵庫県神戸市兵庫区塚本通6丁目2番32,,,,,,,,,,,694_buy_sell,,朝日プラザ湊川　509号室,兵庫県神戸市兵庫区下沢通1-1-17,,,,,,,,,,,695_buy_sell,,-,神戸市兵庫区吉田町二丁目17番１,,,,,,,,,,,696_buy_sell,,湊川サンクレバー,神戸市兵庫区荒田町1丁目１２－１５,,,,,,,,,,,697_buy_sell,,ジェイグラン・エル神戸兵庫　（9階　909号室）,神戸市兵庫区芦原通3丁目1番18,,,,,,,,,,,698_buy_sell,,アルファステイツ上沢　（7階）,神戸市兵庫区下沢通8－4－8,,,,,,,,,,,699_buy_sell,,兵庫コートハウス,兵庫県神戸市　兵庫区須佐野通4丁目　３－９,,,,,,,,,,,700_buy_sell,,-,神戸市兵庫区御崎本町2丁目,,,,,,,,,,,701_buy_sell,,エクセルスクエア御崎公園　503号室,神戸市兵庫区浜中町2丁目1－17－503号,,,,,,,,,,,702_buy_sell,,ライオンズマンション神戸花隈　（6階）,兵庫県神戸市中央区花隈町１４－１０,,,,,,,,,,,703_buy_sell,,ポートアイランド住宅四五号棟　（14階）,兵庫県神戸市中央区港島中町3丁目１－４５,,,,,,,,,,,704_buy_sell,,マイコーポ神戸　[808号室],神戸市中央区相生町5-17-12,,,,,,,,,,,705_buy_sell,,神戸三宮ブリーズレジデンス　（10階）,兵庫県神戸市中央区磯上通3丁目２－１４,,,,,,,,,,,706_buy_sell,,ライオンズマンション湊川公園　（6階）,兵庫県神戸市兵庫区下沢通1丁目4番６,,,,,,,,,,,707_buy_sell,,ジークレフ新神戸タワー,神戸市中央区熊内町7丁目,,,,,,,,,,,708_buy_sell,,アーバンビュー神戸三宮　（14階）,兵庫県神戸市中央区磯辺通4丁目2－16,,,,,,,,,,,709_buy_sell,,ワコーレ神戸三宮マスターズレジデンス,神戸市中央区加納町3丁目１－２５,,,,,,,,,,,710_buy_sell,,サンヴィラ新神戸,神戸市中央区中尾町３－２１,,,,,,,,,,,711_buy_sell,,ライオンズマンション生田川東　（7階）,兵庫県神戸市中央区筒井町3丁目3－12,,,,,,,,,,,712_buy_sell,,ネバーランド下山手通　4階,兵庫県神戸市中央区下山手通7丁目　（住居表示：15-2),,,,,,,,,,,713_buy_sell,,ルネ神戸磯上通　[1303号室],神戸市中央区磯上通3-2-25,,,,,,,,,,,714_buy_sell,,ミッドヒルズ神戸三宮　（12階）,兵庫県神戸市中央区布引町2丁目2－15,,,,,,,,,,,715_buy_sell,,ワコーレ山本通グランィオ　（2階）,兵庫県神戸市中央区山本通二丁目6番２,,,,,,,,,,,716_buy_sell,,カーサ神戸下山手,神戸市中央区下山手通3丁目,,,,,,,,,,,717_buy_sell,,エバーグリーンポートアイランド　（2号棟　6階）,兵庫県神戸市中央区港島中町3丁目2－6,,,,,,,,,,,718_buy_sell,,-,神戸市中央区生田町4丁目,,,,,,,,,,,719_buy_sell,,シーアイマンション須磨エクシード　１３０８,神戸市須磨区北落合6丁目　3－6,,,,,,,,,,,720_buy_sell,,グレーシィ須磨アルテピアII番町　2階 218号室,神戸市須磨区清水台1－18,,,,,,,,,,,721_buy_sell,,名谷14団地57号棟,神戸市須磨区西落合6丁目,,,,,,,,,,,722_buy_sell,,山陽ウインヒルズ須磨友が丘 [209号室],神戸市須磨区多井畑東町1－1,,,,,,,,,,,723_buy_sell,,名谷竜が台東住宅18号棟502号,須磨区竜が台1丁目1－2,,,,,,,,,,,724_buy_sell,,-,神戸市須磨区高倉台1丁目25番7号　（予定　住居表示）,,,,,,,,,,,725_buy_sell,,須磨パークヒルズ　E棟,神戸市須磨区道正台1丁目,,,,,,,,,,,726_buy_sell,,須磨月見山ハイツ,神戸市須磨区月見山本町1丁目５－２６,,,,,,,,,,,727_buy_sell,,-,神戸市須磨区東白川台4丁目１８－１８,,,,,,,,,,,728_buy_sell,,-,神戸市須磨区妙法寺字トン松415番１３,,,,,,,,,,,729_buy_sell,,須磨コーストタワー,神戸市須磨区行幸町1丁目１－３３,,,,,,,,,,,730_buy_sell,,ヒルトップコートジェームス山　１１０９,神戸市垂水区青山台8丁目１－２,,,,,,,,,,,731_buy_sell,,ベル・イルモ塩屋　２０３,神戸市垂水区塩屋町字大谷６５３,,,,,,,,,,,732_buy_sell,,エスペランス塩屋　（7階）,兵庫県神戸市垂水区塩屋町1丁目3－14,,,,,,,,,,,733_buy_sell,,リベール舞子ガーデンズ [504号室],神戸市垂水区北舞子2-7-33,,,,,,,,,,,734_buy_sell,,ライオンズマンション西舞子第2　１０２,神戸市垂水区西舞子6丁目2－33,,,,,,,,,,,735_buy_sell,,兵庫県神戸市垂水区星陵台8丁目,ー,,,,,,,,,,,736_buy_sell,,-,神戸市垂水区塩屋北町3丁目,,,,,,,,,,,737_buy_sell,,-,兵庫県神戸市垂水区桃山台5丁目21－8（住居表示）,,,,,,,,,,,738_buy_sell,,-,兵庫県神戸市垂水区小束山手3丁目4-6,,,,,,,,,,,739_buy_sell,,垂水アーバンコンフォートリアヒルズ　（3階　325号室）,神戸市垂水区上高丸3丁目1－27,,,,,,,,,,,740_buy_sell,,ジャルダン垂水,神戸市垂水区上高丸1丁目,,,,,,,,,,,741_buy_sell,,-,神戸市垂水区名谷町字室山1400番地の116 (予定住居表示）,,,,,,,,,,,742_buy_sell,,ローズヴィラ垂水東,神戸市垂水区乙木1丁目１０－７,,,,,,,,,,,743_buy_sell,,ラ・メール狩口（III)　（2階・203号室）,神戸市垂水区狩口台六丁目8-6,,,,,,,,,,,744_buy_sell,,兵庫県神戸市垂水区名谷町字入野,ー,,,,,,,,,,,745_buy_sell,,プリオーレ美山台二番館　[707号室],神戸市垂水区美山台1-14-1,,,,,,,,,,,746_buy_sell,,グランアーク舞子 [303号室],神戸市垂水区西舞子8-2-16,,,,,,,,,,,747_buy_sell,,-,神戸市垂水区青山台2丁目,,,,,,,,,,,748_buy_sell,,-,〒655-0039　神戸市垂水区霞ヶ丘5丁目2番31号（仮住居表示）,,,,,,,,,,,749_buy_sell,,クレセント霞ヶ丘 [214号室],神戸市垂水区霞ヶ丘6－3－15,,,,,,,,,,,750_buy_sell,,グランアーク舞子 [511号室],神戸市垂水区西舞子8－2－16,,,,,,,,,,,751_buy_sell,,ダイアパレス名谷,兵庫県神戸市　垂水区名谷町字柄立原　２０３５－６,,,,,,,,,,,752_buy_sell,,兵庫県神戸市垂水区塩屋台3丁目,ー,,,,,,,,,,,753_buy_sell,,コンフォール学園緑が丘第1　七号棟,神戸市垂水区小束山1丁目,,,,,,,,,,,754_buy_sell,,フェルティプラザ垂水・丘の街 (416号),神戸市垂水区小束山本町3丁目1－1,,,,,,,,,,,755_buy_sell,,サンヴェール舞子1番館,神戸市垂水区西舞子2丁目,,,,,,,,,,,756_buy_sell,,ワコーレエクセレント塩屋 [302号室],神戸市垂水区塩屋町6－1－15,,,,,,,,,,,757_buy_sell,,ジェームス山ヒルズ参番館,神戸市垂水区松風台2丁目,,,,,,,,,,,758_buy_sell,,ワコーレエトール星陵台,神戸市垂水区星陵台3丁目,,,,,,,,,,,759_buy_sell,,コンフォール学園緑が丘第２,神戸市垂水区小束山一丁目3番34－203号,,,,,,,,,,,,,,,,,,,,,,,,,,,,,,,,,,,,,,,,,,,,,,,,,,,,,,,,,,,,,,,,,,,,,,,,,,,,,,,,,,,,,,,,,,,,,,,,,,,,,,,,,,,,,,,,,,,,,,,,,,,,,,,,,,,,,,,,,,,,,,,,,,,,,,,,,,,,,,,,,,,,,,,,,,,,,,,,,,,,,,,,,,,,,,,,,,,,,,,,,,,,,,,,,,,,,,,,,,,,,,,,,,,,,,,,,,,,,,,,,,,,,,,,,,,,,,,,,,,,,,,,,,,,,,,,,,,,,,,,,,,,,,,,,,,,,,,,,,,,,,,,,,,,,,,,,,,,,,,,,,,,,,,,,,,,,783,,,,,,,,,,,,,,784,,,,,,,,,,,,,,785,,,,,,,,,,,,,,786,,,,,,,,,,,,,,787,,,,,,,,,,,,,,788,,,,,,,,,,,,,,789,,,,,,,,,,,,,,790,,,,,,,,,,,,,,791,,,,,,,,,,,,,,792,,,,,,,,,,,,,,793,,,,,,,,,,,,,,794,,,,,,,,,,,,,,795,,,,,,,,,,,,,,796,,,,,,,,,,,,,,797,,,,,,,,,,,,,,798,,,,,,,,,,,,,,799,,,,,,,,,,,,,,800,,,,,,,,,,,,,,801,,,,,,,,,,,,,,802,,,,,,,,,,,,,,803,,,,,,,,,,,,,,804,,,,,,,,,,,,,,805,,,,,,,,,,,,,,806,,,,,,,,,,,,,,807,,,,,,,,,,,,,,808,,,,,,,,,,,,,,809,,,,,,,,,,,,,,810,,,,,,,,,,,,,,811,,,,,,,,,,,,,,812,,,,,,,,,,,,,,813,,,,,,,,,,,,,,814,,,,,,,,,,,,,,815,,,,,,,,,,,,,,816,,,,,,,,,,,,,,817,,,,,,,,,,,,,,818,,,,,,,,,,,,,,819,,,,,,,,,,,,,,820,,,,,,,,,,,,,,821,,,,,,,,,,,,,,822,,,,,,,,,,,,,,823,,,,,,,,,,,,,,824,,,,,,,,,,,,,,825,,,,,,,,,,,,,,826,,,,,,,,,,,,,,827,,,,,,,,,,,,,,828,,,,,,,,,,,,,,829,,,,,,,,,,,,,,830,,,,,,,,,,,,,,831,,,,,,,,,,,,,,832,,,,,,,,,,,,,,833,,,,,,,,,,,,,,834,,,,,,,,,,,,,,835,,,,,,,,,,,,,,836,,,,,,,,,,,,,,837,,,,,,,,,,,,,,838,,,,,,,,,,,,,,839,,,,,,,,,,,,,,840,,,,,,,,,,,,,,841,,,,,,,,,,,,,,842,,,,,,,,,,,,,,843,,,,,,,,,,,,,,844,,,,,,,,,,,,,,845,,,,,,,,,,,,,,846,,,,,,,,,,,,,,847,,,,,,,,,,,,,,848,,,,,,,,,,,,,,849,,,,,,,,,,,,,,850,,,,,,,,,,,,,,851,,,,,,,,,,,,,,852,,,,,,,,,,,,,,853,,,,,,,,,,,,,,854,,,,,,,,,,,,,,855,,,,,,,,,,,,,,856,,,,,,,,,,,,,,857,,,,,,,,,,,,,,858,,,,,,,,,,,,,,859,,,,,,,,,,,,,,860,,,,,,,,,,,,,,861,,,,,,,,,,,,,,862,,,,,,,,,,,,,,863,,,,,,,,,,,,,,864,,,,,,,,,,,,,,865,,,,,,,,,,,,,,866,,,,,,,,,,,,,,867,,,,,,,,,,,,,,868,,,,,,,,,,,,,,869,,,,,,,,,,,,,,870,,,,,,,,,,,,,,871,,,,,,,,,,,,,,872,,,,,,,,,,,,,,873,,,,,,,,,,,,,,874,,,,,,,,,,,,,,875,,,,,,,,,,,,,,876,,,,,,,,,,,,,,877,,,,,,,,,,,,,,878,,,,,,,,,,,,,,879,,,,,,,,,,,,,,880,,,,,,,,,,,,,,881,,,,,,,,,,,,,,882,,,,,,,,,,,,,,883,,,,,,,,,,,,,,884,,,,,,,,,,,,,,885,,,,,,,,,,,,,,886,,,,,,,,,,,,,,887,,,,,,,,,,,,,,888,,,,,,,,,,,,,,889,,,,,,,,,,,,,,890,,,,,,,,,,,,,,891,,,,,,,,,,,,,,892,,,,,,,,,,,,,,893,,,,,,,,,,,,,,894,,,,,,,,,,,,,,895,,,,,,,,,,,,,,896,,,,,,,,,,,,,,897,,,,,,,,,,,,,,898,,,,,,,,,,,,,,899,,,,,,,,,,,,,,900,,,,,,,,,,,,,,901,,,,,,,,,,,,,,902,,,,,,,,,,,,,,903,,,,,,,,,,,,,,904,,,,,,,,,,,,,,905,,,,,,,,,,,,,,906,,,,,,,,,,,,,,907,,,,,,,,,,,,,,908,,,,,,,,,,,,,,909,,,,,,,,,,,,,,910,,,,,,,,,,,,,,911,,,,,,,,,,,,,,912,,,,,,,,,,,,,,913,,,,,,,,,,,,,,914,,,,,,,,,,,,,,915,,,,,,,,,,,,,,916,,,,,,,,,,,,,,917,,,,,,,,,,,,,,918,,,,,,,,,,,,,,919,,,,,,,,,,,,,,920,,,,,,,,,,,,,,921,,,,,,,,,,,,,,922,,,,,,,,,,,,,,923,,,,,,,,,,,,,,924,,,,,,,,,,,,,,925,,,,,,,,,,,,,,926,,,,,,,,,,,,,,927,,,,,,,,,,,,,,928,,,,,,,,,,,,,,929,,,,,,,,,,,,,,930,,,,,,,,,,,,,,931,,,,,,,,,,,,,,932,,,,,,,,,,,,,,933,,,,,,,,,,,,,,934,,,,,,,,,,,,,,935,,,,,,,,,,,,,,936,,,,,,,,,,,,,,937,,,,,,,,,,,,,,938,,,,,,,,,,,,,,939,,,,,,,,,,,,,,940,,,,,,,,,,,,,,941,,,,,,,,,,,,,,942,,,,,,,,,,,,,,943,,,,,,,,,,,,,,944,,,,,,,,,,,,,,945,,,,,,,,,,,,,,946,,,,,,,,,,,,,,947,,,,,,,,,,,,,,948,,,,,,,,,,,,,,949,,,,,,,,,,,,,,950,,,,,,,,,,,,,,951,,,,,,,,,,,,,,952,,,,,,,,,,,,,,953,,,,,,,,,,,,,,954,,,,,,,,,,,,,,955,,,,,,,,,,,,,,956,,,,,,,,,,,,,,957,,,,,,,,,,,,,,958,,,,,,,,,,,,,,959,,,,,,,,,,,,,,960,,,,,,,,,,,,,,961,,,,,,,,,,,,,,962,,,,,,,,,,,,,,963,,,,,,,,,,,,,,964,,,,,,,,,,,,,,965,,,,,,,,,,,,,,966,,,,,,,,,,,,,,967,,,,,,,,,,,,,,968,,,,,,,,,,,,,,969,,,,,,,,,,,,,,970,,,,,,,,,,,,,,971,,,,,,,,,,,,,,972,,,,,,,,,,,,,,973,,,,,,,,,,,,,,974,,,,,,,,,,,,,,975,,,,,,,,,,,,,,976,,,,,,,,,,,,,,977,,,,,,,,,,,,,,978,,,,,,,,,,,,,,979,,,,,,,,,,,,,,980,,,,,,,,,,,,,,981,,,,,,,,,,,,,,982,,,,,,,,,,,,,,983,,,,,,,,,,,,,,984,,,,,,,,,,,,,,985,,,,,,,,,,,,,,986,,,,,,,,,,,,,,987,,,,,,,,,,,,,,988,,,,,,,,,,,,,,989,,,,,,,,,,,,,,990,,,,,,,,,,,,,,991,,,,,,,,,,,,,,992,,,,,,,,,,,,,,993,,,,,,,,,,,,,,994,,,,,,,,,,,,,,995,,,,,,,,,,,,,,996,,,,,,,,,,,,,,997,,,,,,,,,,,,,,998,,,,,,,,,,,,,,999,,,,,,,,,,,,,,1000,,,,,,,,,,,,,,1001,,,,,,,,,,,,,,1002,,,,,,,,,,,,,,1003,,,,,,,,,,,,,,1004,,,,,,,,,,,,,,1005,,,,,,,,,,,,,,1006,,,,,,,,,,,,,,1007,,,,,,,,,,,,,,1008,,,,,,,,,,,,,,1009,,,,,,,,,,,,,,1010,,,,,,,,,,,,,,1011,,,,,,,,,,,,,,1012,,,,,,,,,,,,,,1013,,,,,,,,,,,,,,1014,,,,,,,,,,,,,,1015,,,,,,,,,,,,,,1016,,,,,,,,,,,,,,1017,,,,,,,,,,,,,,1018,,,,,,,,,,,,,,1019,,,,,,,,,,,,,,1020,,,,,,,,,,,,,,