,Dependent,Symbol,Number,Name,NameKatakana,Sex,Birthday,AcquisitionDate,IssueDate,InsuredPersonName,ExpireDate,Address,WorkplaceName,WorkplaceAddress,WorkplacePhoneNo,InsurerName,IssuerAddress,IssuerPhoneNo
discrete,0.0,0.629,0.29100000000000004,0.273,0.0,0.623,0.536,0.43700000000000006,0.10399999999999998,0.08899999999999997,0.17600000000000005,0.0,0.28200000000000003,0.0,0.0,0.0,0.0,0.0
lev,0.0011250000000000426,0.64825,0.29564999999999997,0.31855,0.0,0.623,0.5511276520974575,0.4422508405032547,0.10483340340818592,0.08975,0.17904999999999904,0.0,0.29939961427461437,0.0,0.0,0.004708333333333536,0.0,0.0
